、,記号-読点,406
の,助詞-連体化,338
を,助詞-格助詞-一般,263
。,記号-句点,202
に,助詞-格助詞-一般,171
は,助詞-係助詞,152
て,助詞-接続助詞,146
が,助詞-格助詞-一般,129
で,助詞-格助詞-一般,105
た,助動詞,95
ます,助動詞,89
「,記号-括弧開,73
」,記号-括弧閉,73
も,助詞-係助詞,63
な,助動詞,57
など,助詞-副助詞,45
で,助動詞,41
と,助詞-格助詞-一般,36
と,助詞-格助詞-引用,34
です,助動詞,31
や,助詞-並立助詞,25
に,助詞-副詞化,24
その,連体詞,24
まし,助動詞,24
か,助詞-副助詞／並立助詞／終助詞,23
：,記号-一般,20
ない,助動詞,20
から,助詞-格助詞-一般,19
まで,助詞-副助詞,18
――,記号-一般,18
・,記号-一般,17
ませ,助動詞,16
ん,助動詞,16
（,記号-括弧開,15
）,記号-括弧閉,15
ば,助詞-接続助詞,15
ある,助動詞,13
と,助詞-並立助詞,12
について,助詞-格助詞-連語,12
が,助詞-接続助詞,11
へ,助詞-格助詞-一般,10
＜,記号-括弧開,10
＞,記号-括弧閉,10
として,助詞-格助詞-連語,10
ご,接頭詞-名詞接続,10
お,接頭詞-名詞接続,9
あり,助動詞,9
なく,助動詞,8
う,助動詞,8
■,記号-一般,8
この,連体詞,8
ので,助詞-接続助詞,8
なけれ,助動詞,8
により,助詞-格助詞-連語,8
どの,連体詞,8
又は,接続詞,8
つ,助動詞,7
において,助詞-格助詞-連語,7
ながら,助詞-接続助詞,7
でしょ,助動詞,7
さらに,副詞-助詞類接続,6
だけ,助詞-副助詞,6
に関する,助詞-格助詞-連語,6
無,接頭詞-名詞接続,6
たい,助動詞,6
によって,助詞-格助詞-連語,6
という,助詞-格助詞-連語,6
で,助詞-接続助詞,5
による,助詞-格助詞-連語,5
各,接頭詞-名詞接続,4
特に,副詞-一般,4
より,助詞-格助詞-一般,4
こうした,連体詞,4
だ,助動詞,3
そうした,連体詞,3
なかっ,助動詞,3
なる,助動詞,3
における,助詞-格助詞-連語,3
しっかり,副詞-助詞類接続,3
まず,副詞-一般,2
と,助詞-副詞化,2
別途,副詞-助詞類接続,2
同時に,副詞-一般,2
の,助詞-格助詞-一般,2
あっ,助動詞,2
ず,助動詞,2
極力,副詞-助詞類接続,2
しかし,接続詞,2
それでも,接続詞,2
まだ,副詞-助詞類接続,2
そして,接続詞,2
そう,副詞-助詞類接続,2
全く,副詞-助詞類接続,2
どう,副詞-助詞類接続,2
と共に,助詞-格助詞-連語,2
べき,助動詞,2
比較的,副詞-一般,2
より,副詞-一般,2
と,助詞-接続助詞,2
なぜ,副詞-助詞類接続,2
でも,助詞-副助詞,2
諸,接頭詞-名詞接続,2
ただ,接続詞,2
例えば,接続詞,2
及び,接続詞,2
ね,助詞-終助詞,2
約,接頭詞-数接続,2
でし,助動詞,2
大きな,連体詞,2
たり,助詞-並立助詞,2
にとって,助詞-格助詞-連語,2
たら,助動詞,1
毎,接頭詞-名詞接続,1
ひろびろ,副詞-助詞類接続,1
に当たって,助詞-格助詞-連語,1
他,接頭詞-名詞接続,1
好,接頭詞-名詞接続,1
何より,副詞-助詞類接続,1
のみ,助詞-副助詞,1
とともに,助詞-格助詞-連語,1
間もなく,副詞-助詞類接続,1
くらい,助詞-副助詞,1
再,接頭詞-名詞接続,1
つつ,助詞-接続助詞,1
もう,副詞-一般,1
しばらく,副詞-助詞類接続,1
いまだ,副詞-助詞類接続,1
もっと,副詞-一般,1
とも,助詞-副助詞,1
改めて,副詞-一般,1
当,接頭詞-名詞接続,1
ほど,助詞-副助詞,1
元,接頭詞-名詞接続,1
何とか,副詞-一般,1
ん,助詞-格助詞-一般,1
でん,副詞-助詞類接続,1
ある,連体詞,1
こそ,助詞-係助詞,1
正しく,副詞-一般,1
恐れながら,接続詞,1
いろいろ,副詞-助詞類接続,1
ただし,接続詞,1
引き続き,副詞-一般,1
もう一度,副詞-一般,1
ござい,助動詞,1
まっすぐ,副詞-助詞類接続,1
今,接頭詞-名詞接続,1
新,接頭詞-名詞接続,1
全,接頭詞-名詞接続,1
※,記号-一般,1
を通じて,助詞-格助詞-連語,1
本当に,副詞-一般,1
低,接頭詞-名詞接続,1
に関し,助詞-格助詞-連語,1
若しくは,接続詞,1
μ,記号-アルファベット,1
おおむね,副詞-一般,1
要,接頭詞-名詞接続,1
に対する,助詞-格助詞-連語,1
ほとんど,副詞-一般,1
一方,接続詞,1
ものの,助詞-接続助詞,1
かも,助詞-副助詞,1
し,助詞-接続助詞,1
それほど,副詞-助詞類接続,1
ちょっとした,連体詞,1
なお,接続詞,1
順次,副詞-助詞類接続,1