なく,形容詞-自立,5
ない,形容詞-自立,5
早く,形容詞-自立,3
多い,形容詞-自立,3
厚,形容詞-自立,3
厳しい,形容詞-自立,2
悪い,形容詞-自立,2
広く,形容詞-自立,2
よく,形容詞-自立,1
強く,形容詞-自立,1
強い,形容詞-自立,1
近い,形容詞-自立,1
多く,形容詞-自立,1
低い,形容詞-自立,1
早い,形容詞-自立,1
厳しく,形容詞-自立,1
多,形容詞-自立,1
ふさわしい,形容詞-自立,1
何気なく,形容詞-自立,1
手厚,形容詞-自立,1
高く,形容詞-自立,1
軽く,形容詞-自立,1
望ましい,形容詞-自立,1
高い,形容詞-自立,1
ほしい,形容詞-非自立,1