、,記号-読点,664
の,助詞-連体化,449
を,助詞-格助詞-一般,399
。,記号-句点,272
は,助詞-係助詞,241
た,助動詞,210
に,助詞-格助詞-一般,207
で,助詞-格助詞-一般,161
「,記号-括弧開,121
」,記号-括弧閉,121
て,助詞-接続助詞,121
が,助詞-格助詞-一般,104
・,記号-一般,95
（,記号-括弧開,82
）,記号-括弧閉,82
など,助詞-副助詞,59
と,助詞-格助詞-引用,48
と,助詞-格助詞-一般,47
も,助詞-係助詞,44
＜,記号-括弧開,42
＞,記号-括弧閉,41
から,助詞-格助詞-一般,38
と,助詞-並立助詞,35
：,記号-一般,33
や,助詞-並立助詞,31
約,接頭詞-数接続,29
で,助動詞,26
まで,助詞-副助詞,26
な,助動詞,26
に,助詞-副詞化,19
による,助詞-格助詞-連語,18
ない,助動詞,16
＆,記号-一般,16
において,助詞-格助詞-連語,15
として,助詞-格助詞-連語,14
の,助詞-格助詞-一般,13
■,記号-一般,12
だっ,助動詞,12
へ,助詞-格助詞-一般,12
が,助詞-接続助詞,12
について,助詞-格助詞-連語,11
と,助詞-接続助詞,10
総,接頭詞-名詞接続,10
により,助詞-格助詞-連語,9
同,接頭詞-名詞接続,8
だ,助動詞,8
この,連体詞,8
といった,助詞-格助詞-連語,8
※,記号-一般,7
ながら,助詞-接続助詞,7
ず,助動詞,7
各,接頭詞-名詞接続,7
たい,助動詞,6
新,接頭詞-名詞接続,6
全,接頭詞-名詞接続,5
ある,助動詞,5
とともに,助詞-格助詞-連語,5
大きな,連体詞,5
なく,助動詞,4
より,副詞-一般,4
より,助詞-格助詞-一般,4
駐,接頭詞-名詞接続,4
か,助詞-副助詞／並立助詞／終助詞,4
‐,記号-一般,4
および,接続詞,3
／,記号-一般,3
ます,助動詞,3
一方,接続詞,3
さらに,副詞-助詞類接続,3
第,接頭詞-数接続,3
既に,副詞-一般,3
に関する,助詞-格助詞-連語,3
という,助詞-格助詞-連語,3
をもって,助詞-格助詞-連語,3
つ,助動詞,3
だけ,助詞-副助詞,2
及び,接続詞,2
！,記号-一般,2
お,接頭詞-名詞接続,2
けど,助詞-接続助詞,2
に対する,助詞-格助詞-連語,2
そして,接続詞,2
そこで,接続詞,2
ほど,助詞-副助詞,2
順次,副詞-助詞類接続,2
その,連体詞,2
にかけて,助詞-格助詞-連語,2
に対し,助詞-格助詞-連語,2
しかし,接続詞,2
あり,助動詞,2
べき,助動詞,2
どう,副詞-助詞類接続,2
全く,副詞-助詞類接続,2
ただ,接続詞,2
内,接頭詞-名詞接続,2
によって,助詞-格助詞-連語,2
しっかり,副詞-助詞類接続,2
そのまま,副詞-一般,1
少し,副詞-助詞類接続,1
に関して,助詞-格助詞-連語,1
さらなる,連体詞,1
に従い,助詞-格助詞-連語,1
一層,副詞-助詞類接続,1
やす,助動詞,1
旧,接頭詞-名詞接続,1
翌,接頭詞-数接続,1
や,助動詞,1
から,助詞-接続助詞,1
わ,助詞-終助詞,1
こんなにも,副詞-一般,1
にとって,助詞-格助詞-連語,1
と共に,助詞-格助詞-連語,1
のみ,助詞-副助詞,1
における,助詞-格助詞-連語,1
まる,接頭詞-数接続,1
＋,記号-一般,1
大,接頭詞-名詞接続,1
に対して,助詞-格助詞-連語,1
でも,助詞-副助詞,1
無,接頭詞-名詞接続,1
各,接頭詞-数接続,1
ものの,助詞-接続助詞,1
で,助詞-接続助詞,1
両,接頭詞-名詞接続,1
もしくは,接続詞,1
少,接頭詞-名詞接続,1
つぎつぎ,副詞-助詞類接続,1
あくまでも,副詞-一般,1
やや,副詞-一般,1
ので,助詞-接続助詞,1
そうした,連体詞,1
ご,接頭詞-名詞接続,1
例えば,接続詞,1
極力,副詞-助詞類接続,1
および,助詞-接続助詞,1
らしい,助動詞,1
もっとも,副詞-一般,1
別,接頭詞-名詞接続,1
子,接頭詞-名詞接続,1
つつ,助詞-接続助詞,1
引き続き,副詞-一般,1
計,接頭詞-数接続,1
ばかり,助詞-副助詞,1
ともに,副詞-一般,1
にあたって,助詞-格助詞-連語,1
もとより,副詞-一般,1
中,接頭詞-名詞接続,1
純,接頭詞-名詞接続,1
ますます,副詞-助詞類接続,1
ちょっと,副詞-助詞類接続,1
しか,助詞-係助詞,1
平,接頭詞-名詞接続,1
と,助詞-副詞化,1