店,名詞-一般,112
月,名詞-一般,99
5,名詞-数,78
店舗,名詞-一般,76
1,名詞-一般,66
営業,名詞-一般,63
日,名詞-接尾-助数詞,60
商品,名詞-一般,54
こと,名詞-非自立-一般,43
.,名詞-サ変接続,41
円,名詞-接尾-助数詞,41
％,名詞-接尾-助数詞,41
3,名詞-数,35
～,名詞-サ変接続,34
感染,名詞-一般,33
億,名詞-数,31
惣菜,名詞-一般,30
2,名詞-数,28
ため,名詞-非自立-副詞可能,26
発表,名詞-サ変接続,25
売場,名詞-一般,25
時間,名詞-一般,24
4,名詞-数,24
実施,名詞-サ変接続,24
県,名詞-接尾-地域,24
万,名詞-数,23
西馬込,名詞-固有名詞-地域-一般,23
新型コロナウイルス,名詞-一般,22
お客,名詞-一般,21
展開,名詞-サ変接続,20
拡大,名詞-サ変接続,19
年,名詞-接尾-助数詞,19
中延,名詞-固有名詞-人名-姓,18
8,名詞-数,17
事業,名詞-一般,17
また,名詞-一般,16
7,名詞-数,15
再開,名詞-サ変接続,15
20時,名詞-一般,14
変更,名詞-サ変接続,14
設置,名詞-サ変接続,14
減,名詞-接尾-一般,14
レジ,名詞-一般,14
売上,名詞-一般,14
強化,名詞-サ変接続,14
部門,名詞-一般,14
販売,名詞-一般,13
1階,名詞-一般,13
防止,名詞-サ変接続,13
継続,名詞-サ変接続,13
通常,名詞-一般,13
利益,名詞-一般,13
業,名詞-接尾-一般,13
コンフォートマーケット,名詞-一般,13
緊急,名詞-形容動詞語幹,12
事態,名詞-一般,12
宣言,名詞-サ変接続,12
店内,名詞-一般,12
対応,名詞-サ変接続,12
一部,名詞-副詞可能,12
休業,名詞-サ変接続,12
数,名詞-接尾-一般,12
加盟店,名詞-一般,12
還元,名詞-サ変接続,12
増,名詞-接尾-一般,12
号,名詞-接尾-一般,12
コーナー,名詞-一般,12
導入,名詞-サ変接続,11
提供,名詞-サ変接続,11
中,名詞-非自立-副詞可能,11
/,名詞-サ変接続,11
新た,名詞-形容動詞語幹,11
声,名詞-一般,11
流通,名詞-サ変接続,11
症,名詞-接尾-一般,11
収入,名詞-一般,11
金,名詞-一般,11
日,名詞-接尾-一般,11
から,名詞-一般,10
2020,名詞-数,10
6,名詞-数,10
利用,名詞-サ変接続,10
開店,名詞-一般,10
業態,名詞-一般,10
よう,名詞-非自立-助動詞語幹,10
2階,名詞-一般,10
品,名詞-接尾-一般,10
台,名詞-一般,10
比,名詞-接尾-一般,10
2019,名詞-数,10
セルフレジ,名詞-一般,10
減少,名詞-サ変接続,10
額,名詞-一般,10
1日,名詞-一般,10
登録,名詞-サ変接続,10
対象,名詞-一般,9
恵那,名詞-固有名詞-地域-一般,9
リニューアル,名詞-一般,9
鮮魚,名詞-一般,9
駅,名詞-接尾-地域,9
的,名詞-接尾-形容動詞語幹,9
配置,名詞-サ変接続,9
運営,名詞-サ変接続,9
消毒,名詞-サ変接続,9
高,名詞-接尾-一般,9
活用,名詞-サ変接続,9
アウト,名詞-一般,9
品ぞろえ,名詞-一般,9
ギフト,名詞-一般,9
提案,名詞-サ変接続,8
採用,名詞-サ変接続,8
後,名詞-接尾-副詞可能,8
-,名詞-サ変接続,8
延長,名詞-サ変接続,8
サービス,名詞-一般,8
フロア,名詞-一般,8
ブランド,名詞-一般,8
10時,名詞-一般,8
期,名詞-接尾-一般,8
最低,名詞-一般,8
決済,名詞-サ変接続,8
百貨店,名詞-一般,8
従業員,名詞-一般,8
使用,名詞-サ変接続,8
注文,名詞-サ変接続,8
お中元,名詞-一般,8
動画,名詞-一般,7
技術,名詞-一般,7
用品,名詞-一般,7
://,名詞-サ変接続,7
全国,名詞-一般,7
短縮,名詞-サ変接続,7
東京都,名詞-一般,7
2日,名詞-一般,7
オープン,名詞-サ変接続,7
精肉,名詞-一般,7
分,名詞-接尾-助数詞,7
面積,名詞-一般,7
m2,名詞-一般,7
感謝,名詞-一般,7
人,名詞-一般,7
前期,名詞-一般,7
保証,名詞-サ変接続,7
キャッシュレス,名詞-一般,7
0,名詞-数,7
時,名詞-接尾-副詞可能,7
顧客,名詞-一般,7
18時,名詞-一般,7
スーパーマーケット,名詞-一般,7
頻度,名詞-一般,7
加工,名詞-一般,7
パック,名詞-一般,7
モール,名詞-一般,7
開始,名詞-サ変接続,6
jp,名詞-一般,6
中止,名詞-サ変接続,6
のみ,名詞-一般,6
31,名詞-数,6
施設,名詞-サ変接続,6
要請,名詞-サ変接続,6
自治体,名詞-一般,6
静岡,名詞-固有名詞-地域-一般,6
ドン・キホーテ,名詞-固有名詞-組織,6
豊富,名詞-一般,6
これ,名詞-代名詞-一般,6
中心,名詞-一般,6
づくり,名詞-接尾-一般,6
青果,名詞-一般,6
価格,名詞-一般,6
酒,名詞-一般,6
徹底,名詞-サ変接続,6
構成,名詞-サ変接続,6
13,名詞-数,6
スタッフ,名詞-一般,6
マスク,名詞-一般,6
影響,名詞-サ変接続,6
決算,名詞-サ変接続,6
専用,名詞-サ変接続,6
ほか,名詞-副詞可能,6
策,名詞-接尾-一般,6
取り組み,名詞-一般,6
以上,名詞-非自立-副詞可能,6
ストア,名詞-サ変接続,6
事業者,名詞-一般,6
コンビニ,名詞-一般,6
型,名詞-一般,6
来店,名詞-サ変接続,6
岡山,名詞-固有名詞-地域-一般,6
換気,名詞-サ変接続,6
それぞれ,名詞-副詞可能,6
スーパー,名詞-一般,6
配,名詞-サ変接続,6
27,名詞-数,6
食品スーパー,名詞-一般,6
ロッカー,名詞-一般,6
入口,名詞-一般,6
購買,名詞-サ変接続,6
魚,名詞-一般,6
5台,名詞-一般,6
センター,名詞-一般,6
11時,名詞-一般,6
どら,名詞-一般,6
15,名詞-数,6
セット,名詞-一般,6
内,名詞-接尾-一般,5
情報,名詞-一般,5
デリバリー,名詞-一般,5
フード,名詞-一般,5
以降,名詞-副詞可能,5
時短営業,名詞-一般,5
市,名詞-接尾-地域,5
層,名詞-接尾-一般,5
お菓子,名詞-一般,5
対策,名詞-サ変接続,5
線,名詞-接尾-一般,5
部分,名詞-一般,5
食品,名詞-一般,5
閉店,名詞-一般,5
ドラッグストア,名詞-一般,5
店頭,名詞-一般,5
働く,名詞-一般,5
等,名詞-接尾-一般,5
東京,名詞-固有名詞-地域-一般,5
5時,名詞-一般,5
テイクアウト,名詞-一般,5
開業,名詞-サ変接続,5
補填,名詞-サ変接続,5
費,名詞-接尾-一般,5
申請,名詞-サ変接続,5
https,名詞-一般,5
9,名詞-数,5
出店,名詞-一般,5
館内,名詞-一般,5
確保,名詞-サ変接続,5
下,名詞-接尾-一般,5
課題,名詞-一般,5
オンライン,名詞-一般,5
フォー,名詞-一般,5
キャスト,名詞-一般,5
都営,名詞-一般,5
コンフォートマーケット,名詞-固有名詞-一般,5
2号店,名詞-一般,5
新しい,名詞-一般,5
高い,名詞-一般,5
冷凍食品,名詞-一般,5
冷凍,名詞-一般,5
でも,名詞-一般,5
ニーズ,名詞-一般,5
イオンモール,名詞-一般,5
スイーツ,名詞-一般,5
シリーズ,名詞-一般,5
ナショナル,名詞-一般,5
デイリー,名詞-一般,5
ニトリ,名詞-一般,4
サイト,名詞-一般,4
ウチソト,名詞-固有名詞-一般,4
アイテム,名詞-一般,4
指,名詞-一般,4
可能,名詞-形容動詞語幹,4
終了,名詞-サ変接続,4
現在,名詞-副詞可能,4
家,名詞-一般,4
14,名詞-数,4
飲食,名詞-一般,4
持ち帰り,名詞-一般,4
都道府県,名詞-一般,4
アルコール,名詞-一般,4
地域,名詞-一般,4
群馬県,名詞-一般,4
岐阜県,名詞-一般,4
今回,名詞-副詞可能,4
所在地,名詞-一般,4
交通,名詞-一般,4
中央,名詞-一般,4
安心,名詞-サ変接続,4
人,名詞-接尾-一般,4
の,名詞-非自立-一般,4
心,名詞-一般,4
19時,名詞-一般,4
収益,名詞-一般,4
新規,名詞-一般,4
オープン,名詞-一般,4
既存,名詞-サ変接続,4
コンビニエンスストア,名詞-一般,4
マーケット,名詞-一般,4
前年,名詞-副詞可能,4
20,名詞-数,4
もの,名詞-非自立-一般,4
飛沫,名詞-一般,4
以外,名詞-非自立-副詞可能,4
2000,名詞-一般,4
力,名詞-接尾-一般,4
京都,名詞-固有名詞-地域-一般,4
消費,名詞-サ変接続,4
効果,名詞-一般,4
改装,名詞-サ変接続,4
高島屋,名詞-一般,4
食料品,名詞-一般,4
特売,名詞-サ変接続,4
コスト,名詞-一般,4
セブン,名詞-一般,4
アイ・ホールディングス,名詞-一般,4
大田区,名詞-一般,4
アプリ,名詞-一般,4
ネットスーパー,名詞-一般,4
レイ,名詞-一般,4
酒類,名詞-一般,4
ベーカリー,名詞-一般,4
場,名詞-接尾-一般,4
供給,名詞-サ変接続,4
人,名詞-接尾-助数詞,4
差別化,名詞-一般,4
感,名詞-接尾-一般,4
全て,名詞-副詞可能,4
受け取り,名詞-一般,4
–,名詞-サ変接続,4
22時,名詞-一般,4
45,名詞-数,4
駐車場,名詞-一般,4
京王,名詞-固有名詞-組織,4
安全,名詞-一般,4
西友,名詞-一般,4
状態,名詞-一般,4
松坂屋,名詞-一般,4
高知,名詞-一般,4
大丸,名詞-一般,4
お抹茶ティラミス,名詞-一般,4
今年,名詞-副詞可能,4
税込,名詞-一般,4
宇治抹茶,名詞-一般,4
ホイップ,名詞-一般,4
ホイップクリーム,名詞-一般,4
ファッションウォーカー,名詞-一般,4
ネット,名詞-一般,4
同社,名詞-一般,3
買物,名詞-サ変接続,3
通販,名詞-一般,3
各社,名詞-一般,3
体制,名詞-一般,3
抑制,名詞-サ変接続,3
終日,名詞-副詞可能,3
予防,名詞-サ変接続,3
状況,名詞-一般,3
個,名詞-一般,3
茨城,名詞-固有名詞-地域-一般,3
独自,名詞-形容動詞語幹,3
MEGA,名詞-一般,3
UNY,名詞-一般,3
強み,名詞-一般,3
意識,名詞-サ変接続,3
演出,名詞-サ変接続,3
充実,名詞-サ変接続,3
雑貨,名詞-一般,3
午前,名詞-副詞可能,3
8時,名詞-一般,3
徒歩,名詞-一般,3
建物,名詞-一般,3
輪,名詞-一般,3
21,名詞-数,3
リスク,名詞-一般,3
ありがとう,名詞-一般,3
不安,名詞-形容動詞語幹,3
ところ,名詞-非自立-副詞可能,3
最,名詞-一般,3
人々,名詞-一般,3
チェーン,名詞-一般,3
一時,名詞-副詞可能,3
時点,名詞-一般,3
特定,名詞-サ変接続,3
警戒,名詞-サ変接続,3
概要,名詞-一般,3
間,名詞-一般,3
今後,名詞-副詞可能,3
外出,名詞-サ変接続,3
自粛,名詞-サ変接続,3
減収,名詞-サ変接続,3
ワン,名詞-一般,3
ファミリーマート,名詞-一般,3
支援,名詞-サ変接続,3
環境,名詞-一般,3
経営,名詞-一般,3
本部,名詞-一般,3
以下,名詞-非自立-副詞可能,3
人件,名詞-一般,3
確定,名詞-サ変接続,3
実績,名詞-一般,3
用,名詞-接尾-一般,3
ポイント還元,名詞-一般,3
兆,名詞-数,3
29,名詞-数,3
22,名詞-数,3
受付,名詞-サ変接続,3
向け,名詞-接尾-一般,3
駅ナカ,名詞-一般,3
伊勢丹,名詞-一般,3
特化,名詞-一般,3
口,名詞-一般,3
橋,名詞-一般,3
経常,名詞-一般,3
会社,名詞-一般,3
増税,名詞-一般,3
客,名詞-一般,3
客数,名詞-一般,3
各種,名詞-一般,3
三咲,名詞-固有名詞-地域-一般,3
高崎,名詞-固有名詞-地域-一般,3
臨時,名詞-一般,3
着用,名詞-サ変接続,3
1人,名詞-一般,3
衛生,名詞-一般,3
それ,名詞-代名詞-一般,3
人口,名詞-一般,3
ベース,名詞-一般,3
傘,名詞-一般,3
浅草線,名詞-固有名詞-一般,3
前,名詞-副詞可能,3
踏襲,名詞-サ変接続,3
重視,名詞-サ変接続,3
和,名詞-一般,3
毎日,名詞-副詞可能,3
調理,名詞-一般,3
550,名詞-数,3
延,名詞-一般,3
床,名詞-一般,3
457,名詞-数,3
製造,名詞-サ変接続,3
500,名詞-数,3
同様,名詞-形容動詞語幹,3
こだわり,名詞-一般,3
仕組み,名詞-一般,3
グロサリー,名詞-一般,3
合計,名詞-サ変接続,3
一方,名詞-非自立-副詞可能,3
量り売り,名詞-一般,3
用意,名詞-サ変接続,3
競合,名詞-サ変接続,3
2台,名詞-一般,3
comfortmarket,名詞-一般,3
館,名詞-接尾-一般,3
42,名詞-数,3
手,名詞-一般,3
システム,名詞-一般,3
はじめ,名詞-副詞可能,3
検査,名詞-サ変接続,3
専門,名詞-一般,3
合併,名詞-サ変接続,3
自宅,名詞-一般,3
密,名詞-一般,3
発売,名詞-サ変接続,3
モチーズ,名詞-一般,3
もちもち,名詞-一般,3
味,名詞-一般,3
生地,名詞-一般,3
味わい,名詞-一般,3
あんこ,名詞-一般,3
損失,名詞-サ変接続,3
LOCONDO,名詞-固有名詞-組織,3
jp,名詞-固有名詞-組織,3
EC,名詞-一般,3
ショップ,名詞-一般,3
品目,名詞-一般,3
オリジナル,名詞-一般,3
ワイン,名詞-一般,3
円,名詞-一般,3
プロセス,名詞-一般,3
ライフスタイル,名詞-一般,2
再生,名詞-サ変接続,2
ストック,名詞-一般,2
配布,名詞-サ変接続,2
中,名詞-接尾-副詞可能,2
QRコード,名詞-一般,2
購入,名詞-サ変接続,2
さ,名詞-接尾-特殊,2
年度,名詞-接尾-助数詞,2
アウトドア,名詞-一般,2
気分,名詞-一般,2
社,名詞-接尾-助数詞,2
日本,名詞-一般,2
客席,名詞-一般,2
ドライブ,名詞-一般,2
スルー,名詞-一般,2
商業,名詞-一般,2
モス,名詞-一般,2
ごと,名詞-接尾-一般,2
検討,名詞-サ変接続,2
山形,名詞-固有名詞-地域-一般,2
福島,名詞-固有名詞-地域-一般,2
神奈川県,名詞-一般,2
富山県,名詞-一般,2
石川県,名詞-一般,2
福井県,名詞-一般,2
長野,名詞-固有名詞-地域-一般,2
愛知,名詞-固有名詞-地域-一般,2
滋賀県,名詞-一般,2
京都府,名詞-一般,2
大阪府,名詞-一般,2
広島,名詞-固有名詞-地域-一般,2
福岡県,名詞-一般,2
熊本県,名詞-一般,2
沖縄,名詞-固有名詞-地域-一般,2
セブン‐イレブン,名詞-一般,2
子会社,名詞-一般,2
転換,名詞-サ変接続,2
ピアゴ,名詞-固有名詞-一般,2
ならでは,名詞-接尾-一般,2
空間,名詞-一般,2
10代,名詞-一般,2
鮮度,名詞-一般,2
生鮮,名詞-一般,2
品,名詞-接尾-助数詞,2
品揃え,名詞-一般,2
玩具,名詞-一般,2
家電,名詞-一般,2
日用,名詞-一般,2
消耗,名詞-サ変接続,2
ペット,名詞-一般,2
コスメ,名詞-一般,2
17,名詞-数,2
車,名詞-一般,2
直営,名詞-サ変接続,2
構造,名詞-一般,2
地上,名詞-一般,2
3階,名詞-一般,2
大阪,名詞-固有名詞-地域-一般,2
調剤,名詞-サ変接続,2
薬局,名詞-一般,2
アカ,名詞-一般,2
カベ,名詞-一般,2
ポスター,名詞-一般,2
コロナ,名詞-一般,2
大変,名詞-形容動詞語幹,2
掲載,名詞-サ変接続,2
暖かい,名詞-一般,2
負担,名詞-サ変接続,2
言葉,名詞-一般,2
多く,名詞-副詞可能,2
健康,名詞-一般,2
暮らし,名詞-一般,2
形態,名詞-一般,2
ビール,名詞-一般,2
グループ,名詞-一般,2
広報,名詞-サ変接続,2
JR,名詞-一般,2
減益,名詞-サ変接続,2
エキュート,名詞-固有名詞-一般,2
初,名詞-一般,2
渋谷,名詞-固有名詞-地域-一般,2
12,名詞-数,2
集中,名詞-サ変接続,2
悪化,名詞-サ変接続,2
緩和,名詞-サ変接続,2
措置,名詞-サ変接続,2
割合,名詞-一般,2
お見舞,名詞-一般,2
支払,名詞-一般,2
精算,名詞-サ変接続,2
性,名詞-接尾-一般,2
経費,名詞-一般,2
将来,名詞-副詞可能,2
制度,名詞-一般,2
支障,名詞-一般,2
支払い,名詞-一般,2
場合,名詞-副詞可能,2
安定,名詞-一般,2
シート,名詞-一般,2
発生,名詞-サ変接続,2
費用,名詞-一般,2
決定,名詞-サ変接続,2
8000,名詞-一般,2
うち,名詞-非自立-副詞可能,2
中小,名詞-一般,2
小規模,名詞-形容動詞語幹,2
フランチャイズ,名詞-一般,2
80,名詞-数,2
7000,名詞-一般,2
64,名詞-数,2
その他,名詞-一般,2
現状,名詞-一般,2
従来,名詞-副詞可能,2
者,名詞-接尾-一般,2
利便性,名詞-一般,2
向上,名詞-サ変接続,2
駅,名詞-一般,2
完了,名詞-サ変接続,2
町,名詞-接尾-地域,2
テナント,名詞-一般,2
方式,名詞-一般,2
800,名詞-数,2
親,名詞-一般,2
帰属,名詞-サ変接続,2
当期,名詞-一般,2
推移,名詞-サ変接続,2
季節,名詞-一般,2
動き,名詞-一般,2
販促,名詞-一般,2
単価,名詞-一般,2
2100,名詞-数,2
取得,名詞-サ変接続,2
管理,名詞-サ変接続,2
アルコール消毒,名詞-一般,2
外気,名詞-一般,2
取り込み,名詞-一般,2
混雑,名詞-サ変接続,2
制限,名詞-サ変接続,2
人数,名詞-一般,2
ソーシャルディスタンス,名詞-一般,2
協力,名詞-サ変接続,2
30,名詞-数,2
根本,名詞-固有名詞-人名-姓,2
氏,名詞-接尾-人名,2
業界,名詞-一般,2
仮想,名詞-サ変接続,2
Q,名詞-一般,2
23,名詞-数,2
回避,名詞-サ変接続,2
点,名詞-非自立-一般,2
動向,名詞-一般,2
消費者,名詞-一般,2
変化,名詞-サ変接続,2
プロ,名詞-一般,2
モーション,名詞-一般,2
結果,名詞-副詞可能,2
指摘,名詞-サ変接続,2
･,名詞-サ変接続,2
長期,名詞-一般,2
高まり,名詞-一般,2
医療,名詞-一般,2
毎日,名詞-固有名詞-組織,2
企業,名詞-一般,2
勤務,名詞-サ変接続,2
メーカー,名詞-一般,2
サポート,名詞-サ変接続,2
報告,名詞-サ変接続,2
www,名詞-一般,2
省力,名詞-一般,2
化,名詞-接尾-サ変接続,2
人員,名詞-一般,2
乳製品,名詞-一般,2
パン,名詞-一般,2
生鮮食品,名詞-一般,2
4階,名詞-一般,2
味付け,名詞-一般,2
商圏,名詞-一般,2
m,名詞-一般,2
圏内,名詞-一般,2
km,名詞-一般,2
浅草,名詞-固有名詞-地域-一般,2
距離,名詞-一般,2
母,名詞-一般,2
750,名詞-数,2
SKU,名詞-一般,2
ティエフケー,名詞-一般,2
冷,名詞-一般,2
対面,名詞-サ変接続,2
固定,名詞-サ変接続,2
買い物,名詞-一般,2
寿司,名詞-一般,2
高齢者,名詞-一般,2
事前,名詞-一般,2
本稿,名詞-一般,2
南口,名詞-一般,2
1分,名詞-一般,2
平日,名詞-一般,2
土,名詞-一般,2
祝,名詞-一般,2
提携,名詞-サ変接続,2
カ所,名詞-接尾-助数詞,2
1台,名詞-一般,2
駐輪場,名詞-一般,2
36,名詞-数,2
機,名詞-接尾-一般,2
26,名詞-数,2
正社員,名詞-一般,2
7人,名詞-一般,2
パート,名詞-一般,2
アルバイト,名詞-一般,2
8時間,名詞-一般,2
換算,名詞-サ変接続,2
旅行,名詞-一般,2
集客,名詞-一般,2
K,名詞-固有名詞-組織,2
SHOP,名詞-固有名詞-組織,2
ショッピング,名詞-一般,2
食,名詞-一般,2
物販,名詞-一般,2
ファッション,名詞-一般,2
カフェ,名詞-一般,2
レストラン,名詞-一般,2
接触,名詞-サ変接続,2
最大限,名詞-一般,2
入場,名詞-サ変接続,2
東久留米,名詞-固有名詞-地域-一般,2
期間,名詞-一般,2
業者,名詞-一般,2
作業,名詞-サ変接続,2
確認,名詞-サ変接続,2
東武,名詞-固有名詞-組織,2
誘客,名詞-一般,2
地下,名詞-一般,2
都市,名詞-一般,2
Quick,名詞-固有名詞-組織,2
クイック,名詞-一般,2
ヨーク,名詞-一般,2
吸収,名詞-サ変接続,2
上,名詞-接尾-副詞可能,2
プログラム,名詞-一般,2
自ら,名詞-副詞可能,2
ラスト,名詞-一般,2
マイル,名詞-一般,2
全館,名詞-一般,2
シールド,名詞-サ変接続,2
フェース,名詞-一般,2
ロールケーキ,名詞-一般,2
累計,名詞-一般,2
個,名詞-接尾-助数詞,2
女性,名詞-一般,2
好評,名詞-一般,2
ライン,名詞-一般,2
アップ,名詞-一般,2
苦み,名詞-一般,2
乳,名詞-一般,2
マスカルポーネクリーム,名詞-一般,2
抹茶クリーム,名詞-一般,2
お抹茶,名詞-一般,2
配合,名詞-サ変接続,2
比率,名詞-一般,2
恵比寿,名詞-固有名詞-地域-一般,2
横浜,名詞-固有名詞-地域-一般,2
関東,名詞-固有名詞-地域-一般,2
ロコンド,名詞-一般,2
ワールド,名詞-一般,2
6300,名詞-数,2
取扱,名詞-一般,2
ナカ,名詞-固有名詞-一般,2
おうち,名詞-一般,2
三越伊勢丹,名詞-一般,2
三越,名詞-一般,2
筋,名詞-一般,2
棚,名詞-一般,2
割り,名詞-接尾-一般,2
果物,名詞-一般,2
お取り寄せアイス,名詞-一般,2
特徴,名詞-一般,2
高温,名詞-一般,2
1000,名詞-一般,2
ロコ,名詞-固有名詞-一般,2
シキ,名詞-一般,2
仕入れ,名詞-一般,2
保存,名詞-一般,2
細胞,名詞-一般,2
ミールキット,名詞-一般,2
炒め,名詞-一般,2
オープンキッチン,名詞-一般,2
次世代,名詞-一般,1
TIG,名詞-固有名詞-組織,1
ティグ,名詞-固有名詞-一般,1
ウチソト,名詞-一般,1
WEB,名詞-固有名詞-組織,1
スマホ版,名詞-一般,1
気,名詞-非自立-一般,1
パソコン,名詞-一般,1
クリック,名詞-一般,1
スマホ,名詞-一般,1
リーフレット,名詞-一般,1
PASSPORT,名詞-一般,1
直接アクセス,名詞-一般,1
アイコン,名詞-一般,1
タップ,名詞-一般,1
便利,名詞-一般,1
モデル,名詞-一般,1
ベランダ,名詞-一般,1
ガーデン,名詞-一般,1
時,名詞-非自立-副詞可能,1
外,名詞-一般,1
イメージ,名詞-サ変接続,1
感覚,名詞-一般,1
https,名詞-固有名詞-組織,1
page,名詞-一般,1
nitori,名詞-一般,1
net,名詞-一般,1
uchisoto,名詞-一般,1
theater,名詞-一般,1
index,名詞-一般,1
html,名詞-一般,1
ファストフード,名詞-一般,1
マクドナルド,名詞-一般,1
2900,名詞-数,1
めど,名詞-一般,1
日本,名詞-固有名詞-地域-国,1
ケンタッキー,名詞-一般,1
フライ,名詞-一般,1
ド,名詞-一般,1
チキン,名詞-一般,1
原則,名詞-一般,1
限定メニュー,名詞-一般,1
新潟県,名詞-一般,1
兵庫,名詞-固有名詞-地域-一般,1
奈良,名詞-固有名詞-地域-一般,1
ジャパン,名詞-固有名詞-地域-国,1
2021,名詞-数,1
目途,名詞-一般,1
カンボジア,名詞-固有名詞-地域-国,1
完全,名詞-形容動詞語幹,1
ElevenUD,名詞-一般,1
リテール,名詞-一般,1
えな,名詞-一般,1
存分,名詞-一般,1
トレンド,名詞-一般,1
感性,名詞-一般,1
豊か,名詞-形容動詞語幹,1
POP,名詞-一般,1
ワクワク,名詞-一般,1
ドキドキ,名詞-サ変接続,1
シニア,名詞-一般,1
ニューファミリー,名詞-固有名詞-組織,1
若年,名詞-一般,1
客層,名詞-一般,1
世代,名詞-一般,1
品質,名詞-一般,1
驚,名詞-固有名詞-地域-一般,1
安,名詞-接尾-一般,1
きょう,名詞-副詞可能,1
一般,名詞-一般,1
加工食品,名詞-一般,1
スポーツ,名詞-一般,1
カー,名詞-一般,1
子ども,名詞-一般,1
連れ,名詞-接尾-一般,1
ファミリー,名詞-一般,1
遊具,名詞-一般,1
キッズ,名詞-一般,1
広場,名詞-一般,1
隣接,名詞-サ変接続,1
アミューズメント,名詞-一般,1
ゾーン,名詞-一般,1
インテリア,名詞-一般,1
スマートフォン,名詞-一般,1
アクセサリー,名詞-一般,1
カラーコンタクトレンズ,名詞-一般,1
香水,名詞-一般,1
インポート,名詞-一般,1
MEGA,名詞-固有名詞-組織,1
名,名詞-接尾-一般,1
ピアゴ,名詞-一般,1
0時,名詞-一般,1
火,名詞-一般,1
）～,名詞-サ変接続,1
木,名詞-一般,1
日間,名詞-接尾-助数詞,1
9時,名詞-一般,1
午後,名詞-副詞可能,1
長島町正家,名詞-固有名詞-地域-一般,1
公共,名詞-一般,1
機関,名詞-一般,1
JR,名詞-固有名詞-組織,1
本,名詞-一般,1
自動車,名詞-一般,1
道,名詞-接尾-一般,1
IC,名詞-固有名詞-組織,1
5296,名詞-数,1
建,名詞-一般,1
家庭,名詞-一般,1
衣料,名詞-一般,1
化粧品,名詞-一般,1
製品,名詞-一般,1
医薬品,名詞-一般,1
329,名詞-数,1
24,名詞-数,1
台,名詞-接尾-助数詞,1
ヨークベニマル,名詞-固有名詞-組織,1
一環,名詞-一般,1
47,名詞-数,1
福島県,名詞-一般,1
39,名詞-数,1
宮城,名詞-固有名詞-地域-一般,1
49,名詞-数,1
山形県,名詞-一般,1
栃木県,名詞-一般,1
25,名詞-数,1
北東,名詞-一般,1
部,名詞-接尾-一般,1
掲示,名詞-サ変接続,1
通り,名詞-接尾-一般,1
体,名詞-一般,1
気,名詞-一般,1
残念,名詞-一般,1
あなた,名詞-代名詞-一般,1
元気,名詞-一般,1
丁寧,名詞-一般,1
手作り,名詞-一般,1
みんな,名詞-代名詞-一般,1
優しい,名詞-一般,1
涙,名詞-一般,1
私,名詞-代名詞-一般,1
気持ち,名詞-一般,1
丁寧,名詞-形容動詞語幹,1
お客様,名詞-一般,1
エピソード,名詞-一般,1
紹介,名詞-一般,1
業務,名詞-一般,1
繁忙,名詞-一般,1
懸念,名詞-サ変接続,1
事項,名詞-一般,1
支え,名詞-一般,1
自社,名詞-固有名詞-組織,1
寄贈,名詞-サ変接続,1
各所,名詞-一般,1
力,名詞-一般,1
企画,名詞-一般,1
患者,名詞-一般,1
募集,名詞-一般,1
前線,名詞-一般,1
奮闘,名詞-サ変接続,1
医療従事者,名詞-一般,1
エッセンシャルワーカー,名詞-一般,1
すべて,名詞-副詞可能,1
エール,名詞-一般,1
牛丼,名詞-一般,1
大手,名詞-一般,1
すき家,名詞-一般,1
18,名詞-数,1
類,名詞-接尾-一般,1
帯,名詞-一般,1
休止,名詞-サ変接続,1
兵庫県,名詞-一般,1
奈良県,名詞-一般,1
吉野家,名詞-一般,1
1003,名詞-数,1
数,名詞-数,1
672,名詞-数,1
52,名詞-数,1
61,名詞-数,1
56,名詞-数,1
食事,名詞-一般,1
県,名詞-一般,1
はな,名詞-一般,1
京,名詞-固有名詞-人名-姓,1
樽,名詞-一般,1
松屋,名詞-一般,1
東日本,名詞-固有名詞-地域-一般,1
5736,名詞-数,1
343,名詞-数,1
影,名詞-一般,1
響,名詞-一般,1
計上,名詞-サ変接続,1
グランスタ,名詞-固有名詞-一般,1
郵便,名詞-一般,1
連携,名詞-サ変接続,1
くらし,名詞-一般,1
ストップ,名詞-サ変接続,1
実現,名詞-サ変接続,1
JJ,名詞-固有名詞-組織,1
T,名詞-固有名詞-組織,1
ジェイジェイプラスティー,名詞-固有名詞-一般,1
立川,名詞-固有名詞-組織,1
ニューデイズ,名詞-固有名詞-一般,1
店員,名詞-一般,1
武蔵,名詞-一般,1
境,名詞-固有名詞-地域-一般,1
スクランブル,名詞-一般,1
スクエア,名詞-一般,1
1期,名詞-一般,1
東,名詞-一般,1
棟,名詞-接尾-一般,1
エキナカ,名詞-一般,1
エキュートエディション,名詞-一般,1
紀ノ国屋,名詞-一般,1
グルマン,名詞-一般,1
エキュート,名詞-固有名詞-組織,1
宮,名詞-一般,1
埼玉,名詞-固有名詞-地域-一般,1
追加,名詞-サ変接続,1
目的,名詞-一般,1
早期,名詞-一般,1
立地,名詞-一般,1
特性,名詞-一般,1
一律,名詞-副詞可能,1
原価,名詞-一般,1
ロイヤリティ,名詞-一般,1
比較,名詞-サ変接続,1
10万円,名詞-一般,1
率,名詞-接尾-一般,1
5万円,名詞-一般,1
支給,名詞-サ変接続,1
資金,名詞-一般,1
払拭,名詞-サ変接続,1
補償,名詞-サ変接続,1
翌年,名詞-副詞可能,1
1年間,名詞-一般,1
年,名詞-一般,1
単位,名詞-一般,1
3カ月,名詞-一般,1
間,名詞-接尾-一般,1
清算,名詞-サ変接続,1
その後,名詞-副詞可能,1
返還,名詞-サ変接続,1
料,名詞-一般,1
感染者,名詞-一般,1
災害,名詞-一般,1
見舞,名詞-サ変接続,1
実行,名詞-サ変接続,1
一連,名詞-一般,1
総額,名詞-一般,1
見込み,名詞-一般,1
経済産業省,名詞-一般,1
10月,名詞-一般,1
2410,名詞-数,1
2070,名詞-数,1
86,名詞-数,1
260,名詞-数,1
手段,名詞-一般,1
内訳,名詞-一般,1
クレジットカード,名詞-一般,1
4000,名詞-一般,1
電子,名詞-一般,1
マネー,名詞-一般,1
02,名詞-数,1
90,名詞-数,1
5000,名詞-一般,1
ウィルス,名詞-一般,1
実務,名詞-一般,1
遅れ,名詞-一般,1
補助,名詞-サ変接続,1
事務,名詞-一般,1
局,名詞-接尾-一般,1
期限,名詞-一般,1
済み,名詞-接尾-一般,1
手続き,名詞-サ変接続,1
通知,名詞-サ変接続,1
cashless,名詞-一般,1
go,名詞-一般,1
西日本,名詞-固有名詞-地域-一般,1
2260,名詞-数,1
38,名詞-数,1
37,名詞-数,1
ソト,名詞-固有名詞-一般,1
推進,名詞-サ変接続,1
競争,名詞-サ変接続,1
確立,名詞-サ変接続,1
ジェイアール,名詞-一般,1
5階,名詞-一般,1
大規模,名詞-一般,1
セグメント,名詞-一般,1
区分,名詞-サ変接続,1
宿泊,名詞-一般,1
ホテル,名詞-一般,1
ヴィアイン,名詞-固有名詞-一般,1
八,名詞-数,1
条,名詞-接尾-助数詞,1
博多,名詞-固有名詞-地域-一般,1
駅前,名詞-一般,1
斎,名詞-一般,1
四,名詞-数,1
ツ,名詞-一般,1
日本橋,名詞-固有名詞-地域-一般,1
人形,名詞-固有名詞-地域-一般,1
昨年,名詞-副詞可能,1
契約,名詞-サ変接続,1
アクシアルリテイリング,名詞-一般,1
2408,名詞-数,1
9800,名詞-数,1
94,名詞-数,1
6700,名詞-数,1
97,名詞-数,1
62,名詞-数,1
3900,名詞-数,1
面,名詞-接尾-一般,1
四半期,名詞-一般,1
堅調,名詞-形容動詞語幹,1
暖,名詞-一般,1
冬,名詞-一般,1
内食,名詞-一般,1
需要,名詞-一般,1
過去,名詞-一般,1
最高,名詞-一般,1
移転,名詞-一般,1
新設,名詞-サ変接続,1
若干,名詞-副詞可能,1
買い上げ,名詞-一般,1
点数,名詞-一般,1
一品,名詞-一般,1
近年,名詞-副詞可能,1
次期,名詞-一般,1
2420,名詞-数,1
83,名詞-数,1
85,名詞-数,1
55,名詞-数,1
京成電鉄,名詞-固有名詞-組織,1
683,名詞-数,1
8900,名詞-数,1
57,名詞-数,1
イベント,名詞-一般,1
千葉,名詞-固有名詞-地域-一般,1
みなと,名詞-固有名詞-地域-一般,1
道野辺中央,名詞-固有名詞-地域-一般,1
権,名詞-接尾-一般,1
リブレ,名詞-固有名詞-組織,1
京成,名詞-一般,1
業務スーパー,名詞-一般,1
マツモトキヨシ,名詞-一般,1
特別,名詞-一般,1
法,名詞-接尾-一般,1
所在,名詞-一般,1
入店,名詞-一般,1
体調,名詞-一般,1
不良,名詞-形容動詞語幹,1
当面,名詞-副詞可能,1
高崎,名詞-固有名詞-人名-姓,1
経済,名詞-一般,1
研究所,名詞-一般,1
理事,名詞-一般,1
拓殖,名詞-サ変接続,1
大学,名詞-一般,1
名誉,名詞-形容動詞語幹,1
教授,名詞-一般,1
重之,名詞-固有名詞-人名-名,1
このほど,名詞-副詞可能,1
A,名詞-一般,1
公開,名詞-サ変接続,1
悲観,名詞-サ変接続,1
楽観,名詞-サ変接続,1
見方,名詞-一般,1
注意,名詞-サ変接続,1
うえ,名詞-非自立-副詞可能,1
批判,名詞-サ変接続,1
志向,名詞-サ変接続,1
新製品,名詞-一般,1
社会貢献,名詞-一般,1
宅配,名詞-一般,1
考え方,名詞-一般,1
チラシ,名詞-一般,1
機会,名詞-一般,1
ハイ,名詞-一般,1
ロー,名詞-一般,1
政策,名詞-一般,1
本格的,名詞-一般,1
脱却,名詞-サ変接続,1
EDLP,名詞-一般,1
適正,名詞-形容動詞語幹,1
無駄,名詞-形容動詞語幹,1
製,名詞-一般,1
販,名詞-一般,1
合理的,名詞-一般,1
物流,名詞-一般,1
負荷,名詞-サ変接続,1
コロナウイルス,名詞-一般,1
終息,名詞-サ変接続,1
提言,名詞-サ変接続,1
展望,名詞-サ変接続,1
顕在化,名詞-一般,1
拍車,名詞-一般,1
見通し,名詞-一般,1
提示,名詞-サ変接続,1
命,名詞-一般,1
介護,名詞-一般,1
産業,名詞-一般,1
社会,名詞-一般,1
存続,名詞-サ変接続,1
不可欠,名詞-形容動詞語幹,1
度合い,名詞-一般,1
明らか,名詞-形容動詞語幹,1
Q,名詞-固有名詞-組織,1
A,名詞-固有名詞-組織,1
記述,名詞-サ変接続,1
開催,名詞-サ変接続,1
量販,名詞-サ変接続,1
チャネル,名詞-一般,1
研究,名詞-サ変接続,1
会,名詞-接尾-一般,1
明日,名詞-一般,1
研究会,名詞-一般,1
まとめ,名詞-一般,1
Ahttps,名詞-固有名詞-組織,1
dei,名詞-一般,1
or,名詞-一般,1
aboutdei,名詞-一般,1
column,名詞-一般,1
20200424,名詞-数,1
東急,名詞-固有名詞-組織,1
大井,名詞-固有名詞-地域-一般,1
地下鉄,名詞-一般,1
テスト,名詞-サ変接続,1
フル,名詞-形容動詞語幹,1
スライド式,名詞-一般,1
什器,名詞-一般,1
効率化,名詞-一般,1
白,名詞-一般,1
基調,名詞-一般,1
高級感,名詞-一般,1
雰囲気,名詞-一般,1
点,名詞-接尾-一般,1
飲料,名詞-一般,1
集積,名詞-サ変接続,1
野菜,名詞-一般,1
肉,名詞-一般,1
参考,名詞-サ変接続,1
つまみ,名詞-一般,1
手軽,名詞-一般,1
帰宅,名詞-サ変接続,1
即食,名詞-一般,1
簡便,名詞-一般,1
必要,名詞-形容動詞語幹,1
位置づけ,名詞-一般,1
層,名詞-接尾-助数詞,1
土地,名詞-一般,1
賃貸,名詞-一般,1
保育園,名詞-一般,1
開園,名詞-サ変接続,1
急速,名詞-形容動詞語幹,1
和牛,名詞-一般,1
次,名詞-接尾-一般,1
3500,名詞-数,1
次,名詞-接尾-助数詞,1
5100,名詞-数,1
五反田,名詞-固有名詞-地域-一般,1
側,名詞-接尾-一般,1
先,名詞-接尾-一般,1
かつ,名詞-一般,1
国道,名詞-一般,1
計画,名詞-サ変接続,1
未定,名詞-形容動詞語幹,1
ドミナント,名詞-固有名詞-一般,1
想定,名詞-サ変接続,1
サンドイッチ,名詞-一般,1
円形,名詞-一般,1
象徴的,名詞-一般,1
真上,名詞-一般,1
厨房,名詞-一般,1
エレベーター,名詞-一般,1
SKU,名詞-固有名詞-組織,1
280,名詞-数,1
水産,名詞-一般,1
300,名詞-数,1
190,名詞-数,1
日,名詞-固有名詞-地域-国,1
1500,名詞-数,1
日用品,名詞-一般,1
180,名詞-数,1
5200,名詞-数,1
セブンプレミアム,名詞-一般,1
一切,名詞-副詞可能,1
機内食,名詞-一般,1
関連,名詞-サ変接続,1
インフライトフーズ,名詞-一般,1
お弁当,名詞-一般,1
ベンダー,名詞-一般,1
開拓,名詞-一般,1
活,名詞-一般,1
コロッケ,名詞-一般,1
唐揚げ,名詞-一般,1
コミュニケーション,名詞-一般,1
とり,名詞-一般,1
挑戦,名詞-一般,1
簡単,名詞-一般,1
ばら,名詞-一般,1
詰め,名詞-接尾-一般,1
海鮮丼,名詞-一般,1
担当,名詞-サ変接続,1
急速,名詞-一般,1
ネタ,名詞-一般,1
さかな,名詞-一般,1
屋,名詞-接尾-一般,1
丼,名詞-一般,1
中核,名詞-一般,1
なす,名詞-一般,1
人手,名詞-一般,1
不足,名詞-サ変接続,1
引き下げ,名詞-サ変接続,1
主流,名詞-形容動詞語幹,1
経験,名詞-サ変接続,1
スタイル,名詞-一般,1
電鉄,名詞-一般,1
621,名詞-数,1
44,名詞-数,1
天候,名詞-一般,1
不順,名詞-一般,1
税率,名詞-一般,1
引上げ,名詞-サ変接続,1
訪日,名詞-サ変接続,1
外国人,名詞-一般,1
急激,名詞-形容動詞語幹,1
前年度,名詞-副詞可能,1
寄与,名詞-サ変接続,1
増収,名詞-サ変接続,1
新宿,名詞-固有名詞-地域-一般,1
中地,名詞-固有名詞-地域-一般,1
階,名詞-接尾-一般,1
出来,名詞-一般,1
立て,名詞-接尾-一般,1
京王ストア,名詞-固有名詞-組織,1
高幡,名詞-固有名詞-人名-姓,1
飛田給,名詞-固有名詞-地域-一般,1
下北沢,名詞-固有名詞-人名-姓,1
キラリナ,名詞-固有名詞-一般,1
吉祥寺,名詞-固有名詞-地域-一般,1
年代,名詞-一般,1
多様,名詞-形容動詞語幹,1
エリア,名詞-一般,1
6階,名詞-一般,1
充実,名詞-一般,1
聖蹟,名詞-一般,1
桜ヶ丘,名詞-固有名詞-地域-一般,1
B,名詞-一般,1
利用者,名詞-一般,1
東府中,名詞-固有名詞-地域-一般,1
改札,名詞-サ変接続,1
ルパ,名詞-一般,1
複合,名詞-サ変接続,1
専門店,名詞-一般,1
行政,名詞-一般,1
内容,名詞-一般,1
精査,名詞-サ変接続,1
青森県,名詞-一般,1
つがる,名詞-一般,1
柏,名詞-固有名詞-地域-一般,1
岩手県,名詞-一般,1
盛岡,名詞-固有名詞-地域-一般,1
出入口,名詞-一般,1
液,名詞-接尾-一般,1
部位,名詞-一般,1
開放,名詞-サ変接続,1
稼働,名詞-サ変接続,1
空気,名詞-一般,1
流れ,名詞-一般,1
促進,名詞-サ変接続,1
接客,名詞-サ変接続,1
アクリル板,名詞-一般,1
ビニール,名詞-一般,1
カーテン,名詞-一般,1
フードコート,名詞-一般,1
飲食店,名詞-一般,1
席,名詞-一般,1
間引き,名詞-一般,1
発熱,名詞-サ変接続,1
症状,名詞-一般,1
遠慮,名詞-サ変接続,1
来館,名詞-サ変接続,1
カウント,名詞-サ変接続,1
在,名詞-一般,1
都,名詞-接尾-地域,1
同日,名詞-副詞可能,1
判明,名詞-サ変接続,1
PCR,名詞-一般,1
陽性,名詞-一般,1
判定,名詞-サ変接続,1
最終,名詞-一般,1
出勤,名詞-サ変接続,1
健康,名詞-形容動詞語幹,1
PCR,名詞-固有名詞-組織,1
受診,名詞-サ変接続,1
万全,名詞-形容動詞語幹,1
未明,名詞-副詞可能,1
約束,名詞-サ変接続,1
管轄,名詞-サ変接続,1
保健所,名詞-一般,1
濃厚,名詞-一般,1
鉄道,名詞-一般,1
2664,名詞-数,1
1800,名詞-数,1
33,名詞-数,1
6400,名詞-数,1
池袋,名詞-一般,1
夏,名詞-一般,1
大北海道展,名詞-一般,1
催事,名詞-一般,1
施策,名詞-サ変接続,1
積極的,名詞-一般,1
税,名詞-一般,1
中食,名詞-一般,1
船,名詞-一般,1
東武宇都宮,名詞-固有名詞-一般,1
宇都宮,名詞-固有名詞-地域-一般,1
東武ストア,名詞-固有名詞-組織,1
ミニ,名詞-一般,1
Tobu,名詞-固有名詞-組織,1
store,名詞-一般,1
Fresh,名詞-一般,1
トウブストア,名詞-固有名詞-一般,1
フレッシュ,名詞-一般,1
曳舟,名詞-一般,1
マート,名詞-一般,1
付,名詞-接尾-一般,1
商号,名詞-一般,1
今夏,名詞-副詞可能,1
統合,名詞-サ変接続,1
都合,名詞-一般,1
コンフォートマーケットアプリ,名詞-固有名詞-一般,1
ポイント,名詞-一般,1
サービス,名詞-サ変接続,1
年,名詞-接尾-一般,1
コンフォートマーケットアプリ,名詞-一般,1
配送,名詞-サ変接続,1
解決,名詞-サ変接続,1
J,名詞-一般,1
フロントリテイリング,名詞-一般,1
大丸松坂屋百貨店,名詞-一般,1
観点,名詞-一般,1
各地,名詞-一般,1
縮小,名詞-サ変接続,1
34,名詞-数,1
実情,名詞-一般,1
解除,名詞-サ変接続,1
備品,名詞-一般,1
清掃,名詞-サ変接続,1
ソーシャルディスタンシングマーク,名詞-固有名詞-一般,1
配備,名詞-サ変接続,1
カゴ,名詞-一般,1
カート,名詞-一般,1
付近,名詞-一般,1
サーモグラフィー,名詞-一般,1
検温,名詞-サ変接続,1
ローソン,名詞-一般,1
抹茶,名詞-一般,1
和洋折衷スイーツ,名詞-一般,1
プチ,名詞-一般,1
ぜいたく,名詞-形容動詞語幹,1
好調,名詞-形容動詞語幹,1
ゴールデンウィーク,名詞-一般,1
割増,名詞-一般,1
9000,名詞-一般,1
種類,名詞-一般,1
看板,名詞-一般,1
プレミアムロールケーキ,名詞-一般,1
20代,名詞-一般,1
30代,名詞-一般,1
抹茶味,名詞-一般,1
-＞「,名詞-サ変接続,1
-」（,名詞-サ変接続,1
140,名詞-数,1
白玉粉,名詞-一般,1
餅,名詞-一般,1
コク,名詞-一般,1
クリームチーズ,名詞-一般,1
辻利一本店,名詞-一般,1
中,名詞-一般,1
220,名詞-数,1
宇治抹茶クリーム,名詞-一般,1
北海道産,名詞-一般,1
マスカルポーネ,名詞-一般,1
クリーム,名詞-一般,1
粉末,名詞-一般,1
スポンジ,名詞-一般,1
甘み,名詞-一般,1
エスプレッソ,名詞-一般,1
ソース,名詞-一般,1
アクセント,名詞-一般,1
いも,名詞-一般,1
モチモチ,名詞-一般,1
歯,名詞-一般,1
切れ,名詞-一般,1
どら焼,名詞-一般,1
口当たり,名詞-一般,1
風味豊か,名詞-一般,1
定番,名詞-一般,1
仕立て,名詞-一般,1
具,名詞-一般,1
増量,名詞-一般,1
バランス,名詞-一般,1
刷新,名詞-サ変接続,1
ディーン,名詞-固有名詞-人名-姓,1
デルーカ,名詞-一般,1
広尾,名詞-固有名詞-人名-姓,1
福岡,名詞-固有名詞-地域-一般,1
政府,名詞-一般,1
末,名詞-接尾-副詞可能,1
主要,名詞-一般,1
圏,名詞-接尾-一般,1
関西,名詞-固有名詞-地域-一般,1
東海,名詞-固有名詞-地域-一般,1
九州,名詞-固有名詞-地域-一般,1
Fashion,名詞-固有名詞-組織,1
walker,名詞-一般,1
社,名詞-接尾-一般,1
00,名詞-数,1
出資,名詞-サ変接続,1
設立,名詞-サ変接続,1
400,名詞-数,1
人気,名詞-一般,1
公式,名詞-形容動詞語幹,1
レディースファッション,名詞-一般,1
5500,名詞-数,1
年間,名詞-一般,1
50,名詞-数,1
82,名詞-数,1
割,名詞-接尾-助数詞,1
相当,名詞-サ変接続,1
基本,名詞-一般,1
同業,名詞-一般,1
主,名詞-形容動詞語幹,1
倉庫,名詞-一般,1
IT,名詞-固有名詞-組織,1
インフラ,名詞-一般,1
削減,名詞-サ変接続,1
期待,名詞-サ変接続,1
25歳,名詞-一般,1
29歳,名詞-一般,1
65,名詞-数,1
クロス,名詞-一般,1
セル,名詞-一般,1
Fashionwalker,名詞-固有名詞-組織,1
港区,名詞-一般,1
北,名詞-一般,1
青,名詞-一般,1
山,名詞-一般,1
表,名詞-接尾-一般,1
取締役,名詞-一般,1
社長,名詞-一般,1
中嶋,名詞-固有名詞-地域-一般,1
築,名詞-固有名詞-地域-一般,1
事業内容,名詞-一般,1
EC,名詞-固有名詞-組織,1
受託,名詞-サ変接続,1
資本,名詞-一般,1
小売,名詞-サ変接続,1
商戦,名詞-一般,1
受注,名詞-サ変接続,1
楽しむ,名詞-一般,1
希少,名詞-一般,1
素材,名詞-一般,1
技,名詞-一般,1
おいしい,名詞-一般,1
備蓄,名詞-一般,1
特集,名詞-サ変接続,1
時期,名詞-副詞可能,1
時世,名詞-一般,1
パーティー,名詞-一般,1
予測,名詞-サ変接続,1
限定,名詞-一般,1
抽選,名詞-サ変接続,1
カタログギフト,名詞-一般,1
4180,名詞-数,1
プレゼント,名詞-一般,1
特典,名詞-一般,1
ホールディングス,名詞-一般,1
首都圏,名詞-一般,1
小型,名詞-一般,1
要望,名詞-サ変接続,1
大丸松坂屋,名詞-一般,1
オンラインショッピング,名詞-一般,1
インターネット,名詞-一般,1
優待,名詞-サ変接続,1
1270,名詞-数,1
点,名詞-接尾-助数詞,1
表示,名詞-サ変接続,1
オフ,名詞-固有名詞-組織,1
SEIYU,名詞-固有名詞-組織,1
ドット,名詞-一般,1
コム,名詞-一般,1
お中元ギフト,名詞-一般,1
取扱い,名詞-一般,1
900,名詞-数,1
ウォルマートカード,名詞-一般,1
セゾン,名詞-一般,1
オフ,名詞-一般,1
割引,名詞-一般,1
初めて,名詞-一般,1
コール,名詞-一般,1
開設,名詞-サ変接続,1
入会,名詞-サ変接続,1
入力,名詞-サ変接続,1
方法,名詞-一般,1
相談,名詞-サ変接続,1
見直し,名詞-一般,1
誰,名詞-代名詞-一般,1
売れ,名詞-一般,1
大人,名詞-一般,1
おつまみ,名詞-一般,1
一緒,名詞-一般,1
試み,名詞-一般,1
高級,名詞-形容動詞語幹,1
普段使い,名詞-一般,1
シンプル,名詞-形容動詞語幹,1
敷居,名詞-一般,1
華やかさ,名詞-一般,1
前面,名詞-一般,1
普通,名詞-形容動詞語幹,1
十分,名詞-形容動詞語幹,1
アピール,名詞-サ変接続,1
エントランス,名詞-一般,1
アイスクリーム,名詞-一般,1
併売,名詞-一般,1
冷凍生地,名詞-一般,1
インストアベーカリー,名詞-一般,1
プレミアム,名詞-一般,1
生食パン,名詞-一般,1
ピザ,名詞-一般,1
粉,名詞-一般,1
18時間,名詞-一般,1
製法,名詞-一般,1
℃,名詞-サ変接続,1
ピザ窯,名詞-一般,1
作り置き,名詞-一般,1
缶チューハイ,名詞-一般,1
日本酒,名詞-一般,1
ウイスキー,名詞-一般,1
フルラ,名詞-一般,1
イン,名詞-一般,1
手ごろ,名詞-形容動詞語幹,1
500円,名詞-一般,1
プライス,名詞-一般,1
豆腐,名詞-一般,1
納豆,名詞-一般,1
漬物,名詞-一般,1
拡充,名詞-サ変接続,1
チーズ,名詞-一般,1
生ハム,名詞-一般,1
洋,名詞-一般,1
支持,名詞-サ変接続,1
ケース,名詞-一般,1
反省,名詞-サ変接続,1
おすすめメニュー,名詞-一般,1
生産,名詞-サ変接続,1
農家,名詞-一般,1
漁港,名詞-一般,1
加工品,名詞-一般,1
市場,名詞-一般,1
ルート,名詞-一般,1
一級,名詞-一般,1
形,名詞-接尾-一般,1
サイズ,名詞-一般,1
規格外,名詞-一般,1
メリット,名詞-一般,1
血液,名詞-一般,1
新鋭,名詞-一般,1
設備,名詞-サ変接続,1
開発,名詞-サ変接続,1
食材,名詞-一般,1
酸化,名詞-一般,1
硬化,名詞-サ変接続,1
極限,名詞-一般,1
作り立て,名詞-一般,1
まま,名詞-非自立-副詞可能,1
真空パック,名詞-一般,1
ホット,名詞-一般,1
リキッド,名詞-一般,1
フリーズ,名詞-一般,1
新鮮,名詞-形容動詞語幹,1
賞味,名詞-サ変接続,1
訴求,名詞-サ変接続,1
Pan,名詞-一般,1
牛,名詞-一般,1
プルコギ,名詞-一般,1
税別,名詞-一般,1
288,名詞-数,1
2人前,名詞-一般,1
498,名詞-数,1
豚みそ,名詞-一般,1
四川麻婆豆腐,名詞-一般,1
八宝菜,名詞-一般,1
韓国風,名詞-一般,1
牛肉,名詞-一般,1
春雨,名詞-一般,1
鶏,名詞-一般,1
ディアボラ,名詞-一般,1
風,名詞-一般,1
住商,名詞-一般,1
フーズ,名詞-一般,1
川崎,名詞-固有名詞-地域-一般,1
塩浜,名詞-一般,1
丸,名詞-一般,1
とも,名詞-接尾-一般,1
時短調理,名詞-一般,1
/■,名詞-サ変接続,1
強調,名詞-サ変接続,1
ryutsuu,名詞-一般,1
biz,名詞-一般,1
report,名詞-一般,1
050843,名詞-数,1
html,名詞-固有名詞-組織,1