月,名詞-一般,171
日,名詞-接尾-助数詞,118
5,名詞-数,116
店,名詞-一般,97
4,名詞-数,66
休業,名詞-サ変接続,65
店舗,名詞-一般,63
こと,名詞-非自立-一般,57
営業,名詞-一般,53
7,名詞-数,50
感染,名詞-一般,46
発表,名詞-サ変接続,42
従業員,名詞-一般,42
等,名詞-接尾-一般,42
％,名詞-接尾-助数詞,38
1,名詞-一般,37
臨時,名詞-一般,35
新型コロナウイルス,名詞-一般,34
.,名詞-サ変接続,32
3,名詞-数,31
延長,名詞-サ変接続,30
拡大,名詞-サ変接続,29
施設,名詞-サ変接続,26
売上,名詞-一般,25
6,名詞-数,25
緊急,名詞-形容動詞語幹,25
事態,名詞-一般,25
ため,名詞-非自立-副詞可能,23
食品,名詞-一般,23
対策,名詞-サ変接続,22
宣言,名詞-サ変接続,21
時間,名詞-一般,21
都道府県,名詞-一般,21
要請,名詞-サ変接続,20
円,名詞-接尾-助数詞,19
継続,名詞-サ変接続,19
販売,名詞-一般,18
実施,名詞-サ変接続,18
2,名詞-数,18
短縮,名詞-サ変接続,17
防止,名詞-サ変接続,17
スシロー,名詞-一般,17
増,名詞-接尾-一般,16
また,名詞-一般,16
売場,名詞-一般,16
状況,名詞-一般,16
勤務,名詞-サ変接続,16
対応,名詞-サ変接続,15
阪急,名詞-固有名詞-組織,15
影響,名詞-サ変接続,15
使用,名詞-サ変接続,15
協力,名詞-サ変接続,14
一部,名詞-副詞可能,14
万,名詞-数,14
テイクアウト,名詞-一般,14
制限,名詞-サ変接続,14
高,名詞-接尾-一般,13
マスク,名詞-一般,13
減,名詞-接尾-一般,12
政府,名詞-一般,12
以外,名詞-非自立-副詞可能,12
額,名詞-一般,12
再開,名詞-サ変接続,12
事業,名詞-一般,12
客数,名詞-一般,11
商品,名詞-一般,11
～,名詞-サ変接続,11
これ,名詞-代名詞-一般,11
人,名詞-一般,11
当面,名詞-副詞可能,11
自粛,名詞-サ変接続,11
年,名詞-接尾-助数詞,10
客,名詞-一般,10
単価,名詞-一般,10
利用,名詞-サ変接続,10
8,名詞-数,10
1日,名詞-一般,10
2日,名詞-一般,10
対象,名詞-一般,10
全国,名詞-一般,10
20,名詞-数,10
同社,名詞-一般,10
特定,名詞-サ変接続,10
警戒,名詞-サ変接続,10
判明,名詞-サ変接続,10
陽性,名詞-一般,10
助成,名詞-サ変接続,10
解除,名詞-サ変接続,10
措置,名詞-サ変接続,10
既存,名詞-サ変接続,9
店内,名詞-一般,9
運営,名詞-サ変接続,9
間,名詞-一般,9
国内,名詞-一般,9
型,名詞-一般,9
地域,名詞-一般,9
中,名詞-接尾-副詞可能,9
もの,名詞-非自立-一般,9
休日,名詞-一般,9
億,名詞-数,8
予定,名詞-サ変接続,8
業務,名詞-一般,8
末,名詞-接尾-副詞可能,8
現在,名詞-副詞可能,8
デリバリー,名詞-一般,8
業態,名詞-一般,8
県,名詞-接尾-地域,8
密,名詞-一般,8
症,名詞-接尾-一般,8
算定,名詞-サ変接続,8
農家,名詞-一般,8
生産,名詞-サ変接続,8
顧客,名詞-一般,8
者,名詞-接尾-一般,8
検査,名詞-サ変接続,8
閉店,名詞-一般,7
健康,名詞-一般,7
日,名詞-接尾-一般,7
のみ,名詞-一般,7
金,名詞-一般,7
30,名詞-数,7
専門店,名詞-一般,7
数,名詞-接尾-一般,7
大阪,名詞-固有名詞-地域-一般,7
会社,名詞-一般,7
ほか,名詞-副詞可能,7
モス,名詞-一般,7
支援,名詞-サ変接続,7
消毒,名詞-サ変接続,7
緩和,名詞-サ変接続,7
徹底,名詞-サ変接続,7
的,名詞-接尾-形容動詞語幹,7
判断,名詞-サ変接続,7
直営店,名詞-一般,7
ホールディングス,名詞-一般,6
期,名詞-接尾-一般,6
18,名詞-数,6
31,名詞-数,6
イズミヤ,名詞-一般,6
配慮,名詞-サ変接続,6
維持,名詞-サ変接続,6
21,名詞-数,6
28,名詞-数,6
パート,名詞-一般,6
決定,名詞-サ変接続,6
策,名詞-接尾-一般,6
2020,名詞-数,6
居酒屋,名詞-一般,6
確保,名詞-サ変接続,6
19時,名詞-一般,6
以降,名詞-副詞可能,6
必要,名詞-形容動詞語幹,6
化,名詞-接尾-サ変接続,6
期間,名詞-一般,6
13,名詞-数,6
主,名詞-形容動詞語幹,6
よう,名詞-非自立-助動詞語幹,6
着用,名詞-サ変接続,6
雇用,名詞-サ変接続,6
基本,名詞-一般,6
接触,名詞-サ変接続,6
前提,名詞-一般,6
発生,名詞-サ変接続,6
場合,名詞-副詞可能,6
用,名詞-接尾-一般,6
基準,名詞-一般,6
2019,名詞-数,5
中止,名詞-サ変接続,5
オアシス,名詞-一般,5
衛生,名詞-一般,5
支給,名詞-サ変接続,5
上昇,名詞-サ変接続,5
大幅,名詞-形容動詞語幹,5
前,名詞-副詞可能,5
9月,名詞-一般,5
会,名詞-接尾-一般,5
資料,名詞-一般,5
直営,名詞-サ変接続,5
今後,名詞-副詞可能,5
9日,名詞-一般,5
品,名詞-接尾-一般,5
全館,名詞-一般,5
大丸,名詞-一般,5
東京,名詞-固有名詞-地域-一般,5
検討,名詞-サ変接続,5
出店,名詞-一般,5
野菜,名詞-一般,5
今回,名詞-副詞可能,5
の,名詞-非自立-一般,5
方法,名詞-一般,5
1人,名詞-一般,5
ジャパン,名詞-固有名詞-地域-国,5
安全,名詞-一般,5
お茶,名詞-一般,5
展開,名詞-サ変接続,5
準備,名詞-サ変接続,5
その後,名詞-副詞可能,5
主,名詞-接尾-一般,5
大阪府,名詞-一般,5
学校,名詞-一般,5
類,名詞-接尾-一般,5
入場,名詞-サ変接続,5
医療,名詞-一般,5
指標,名詞-一般,5
9,名詞-数,4
自治体,名詞-一般,4
客席,名詞-一般,4
大人,名詞-一般,4
発売,名詞-サ変接続,4
設定,名詞-サ変接続,4
ライフ,名詞-一般,4
環境,名詞-一般,4
食品スーパー,名詞-一般,4
最,名詞-一般,4
特別,名詞-一般,4
減少,名詞-サ変接続,4
程度,名詞-一般,4
出典,名詞-一般,4
四半期,名詞-一般,4
税,名詞-一般,4
50,名詞-数,4
活用,名詞-サ変接続,4
別,名詞-接尾-一般,4
持ち帰り,名詞-一般,4
ゆめタウン,名詞-固有名詞-地域-一般,4
10時,名詞-一般,4
フロア,名詞-一般,4
15,名詞-数,4
平日,名詞-一般,4
食料品,名詞-一般,4
生活,名詞-一般,4
高島屋,名詞-一般,4
供給,名詞-サ変接続,4
増加,名詞-サ変接続,4
スイーツ,名詞-一般,4
23,名詞-数,4
フード,名詞-一般,4
調整,名詞-サ変接続,4
独自,名詞-形容動詞語幹,4
ブランド,名詞-一般,4
塩,名詞-一般,4
焼,名詞-一般,4
PCR,名詞-一般,4
日本,名詞-一般,4
ゲンキー,名詞-一般,4
業,名詞-接尾-一般,4
開始,名詞-サ変接続,4
合弁,名詞-一般,4
素材,名詞-一般,4
安心,名詞-サ変接続,4
方針,名詞-一般,4
ワタ,名詞-一般,4
ミ,名詞-一般,4
ロピア,名詞-一般,4
出向,名詞-サ変接続,4
人事,名詞-一般,4
東京都,名詞-一般,4
都立,名詞-一般,4
依頼,名詞-サ変接続,4
愛知,名詞-固有名詞-地域-一般,4
出勤,名詞-サ変接続,4
クラ,名詞-固有名詞-一般,4
回避,名詞-サ変接続,4
考え方,名詞-一般,4
適切,名詞-形容動詞語幹,4
中心,名詞-一般,4
フランチャイズ,名詞-一般,4
最終,名詞-一般,4
ワールド,名詞-一般,4
枚,名詞-接尾-助数詞,4
モデル,名詞-一般,4
モニタリング,名詞-一般,4
マクドナルド,名詞-一般,3
12,名詞-数,3
前年,名詞-副詞可能,3
比,名詞-接尾-一般,3
発出,名詞-サ変接続,3
肉厚,名詞-一般,3
ビーフ,名詞-一般,3
コラボレーション,名詞-一般,3
コーポレーション,名詞-一般,3
間,名詞-接尾-一般,3
阪神,名詞-固有名詞-組織,3
従事,名詞-サ変接続,3
アルバイト,名詞-一般,3
時期,名詞-副詞可能,3
グローバル,名詞-一般,3
22,名詞-数,3
時点,名詞-一般,3
14,名詞-数,3
決算,名詞-サ変接続,3
影,名詞-一般,3
響,名詞-一般,3
倍,名詞-接尾-助数詞,3
以上,名詞-非自立-副詞可能,3
強化,名詞-サ変接続,3
注文,名詞-サ変接続,3
飲食,名詞-一般,3
うち,名詞-非自立-副詞可能,3
従来,名詞-副詞可能,3
カテゴリー,名詞-一般,3
提供,名詞-サ変接続,3
杉,名詞-一般,3
玉,名詞-一般,3
段階的,名詞-一般,3
ニーズ,名詞-一般,3
推移,名詞-サ変接続,3
問題,名詞-ナイ形容詞語幹,3
可能性,名詞-一般,3
衣料,名詞-一般,3
福岡,名詞-固有名詞-地域-一般,3
百貨店,名詞-一般,3
取り組み,名詞-一般,3
住民,名詞-一般,3
11時,名詞-一般,3
18時,名詞-一般,3
16,名詞-数,3
利益,名詞-一般,3
新規,名詞-一般,3
海外,名詞-一般,3
台湾,名詞-一般,3
合計,名詞-サ変接続,3
累計,名詞-一般,3
税別,名詞-一般,3
結果,名詞-副詞可能,3
人,名詞-接尾-助数詞,3
開発,名詞-サ変接続,3
出荷,名詞-サ変接続,3
量,名詞-接尾-一般,3
産地,名詞-一般,3
野菜セット,名詞-一般,3
モスバーガー,名詞-一般,3
発令,名詞-サ変接続,3
レストラン,名詞-一般,3
店頭,名詞-一般,3
魚,名詞-一般,3
調理,名詞-一般,3
さば,名詞-一般,3
旨味,名詞-一般,3
清掃,名詞-サ変接続,3
それ,名詞-代名詞-一般,3
セカンド,名詞-一般,3
ハーベスト,名詞-一般,3
活動,名詞-サ変接続,3
焼き菓子,名詞-一般,3
一般,名詞-一般,3
企業,名詞-一般,3
ホームページ,名詞-一般,3
ドライブ,名詞-一般,3
スルー,名詞-一般,3
Sharetea,名詞-一般,3
水,名詞-一般,3
シェア,名詞-一般,3
ティー,名詞-一般,3
申請,名詞-サ変接続,3
簡素,名詞-形容動詞語幹,3
算出,名詞-サ変接続,3
率,名詞-接尾-一般,3
平均,名詞-サ変接続,3
賃金,名詞-一般,3
書,名詞-接尾-一般,3
マーケット,名詞-一般,3
交流,名詞-サ変接続,3
外食,名詞-一般,3
自社,名詞-固有名詞-組織,3
効果,名詞-一般,3
市,名詞-接尾-地域,3
優先,名詞-サ変接続,3
濃厚,名詞-一般,3
委員,名詞-一般,3
都,名詞-一般,3
法,名詞-接尾-一般,3
国,名詞-一般,3
内閣,名詞-一般,3
官房,名詞-一般,3
埼玉,名詞-固有名詞-地域-一般,3
千葉,名詞-固有名詞-地域-一般,3
兵庫,名詞-固有名詞-地域-一般,3
北海道,名詞-一般,3
茨城,名詞-固有名詞-地域-一般,3
物品,名詞-一般,3
スター,名詞-一般,3
クラブ,名詞-一般,3
留意,名詞-サ変接続,3
予防,名詞-サ変接続,3
工夫,名詞-サ変接続,3
提示,名詞-サ変接続,3
密集,名詞-サ変接続,3
推奨,名詞-サ変接続,3
設置,名詞-サ変接続,3
手,名詞-一般,3
指,名詞-一般,3
設備,名詞-サ変接続,3
リスク,名詞-一般,3
スターバックス,名詞-一般,3
コーヒー,名詞-一般,3
ジャ,名詞-一般,3
パン,名詞-一般,3
お客様,名詞-一般,3
作業,名詞-サ変接続,3
SHIBUYA,名詞-一般,3
109,名詞-数,3
サンエー,名詞-一般,3
火,名詞-一般,3
受診,名詞-サ変接続,3
ガウン,名詞-一般,3
患者,名詞-一般,3
洗える,名詞-一般,3
ウイルス,名詞-一般,3
ポリ,名詞-一般,3
ジン,名詞-一般,3
龍,名詞-一般,3
雲,名詞-一般,3
寺,名詞-一般,3
頃,名詞-接尾-副詞可能,3
府,名詞-一般,3
未満,名詞-接尾-一般,3
日本,名詞-固有名詞-地域-国,2
終日,名詞-副詞可能,2
夜間,名詞-一般,2
ボリューム,名詞-一般,2
炙り,名詞-一般,2
風,名詞-一般,2
ダブル,名詞-一般,2
期間限定,名詞-一般,2
プッチンプリン,名詞-一般,2
初,名詞-一般,2
メニュー,名詞-一般,2
中,名詞-非自立-副詞可能,2
体,名詞-一般,2
心,名詞-一般,2
リフレッシュ,名詞-一般,2
275,名詞-数,2
休,名詞-一般,2
エイチ・ツー・オーリテイリング,名詞-一般,2
グループ,名詞-一般,2
カナート,名詞-一般,2
それぞれ,名詞-副詞可能,2
商業,名詞-一般,2
5000,名詞-一般,2
人,名詞-接尾-一般,2
慰労,名詞-サ変接続,2
46,名詞-数,2
実績,名詞-一般,2
0,名詞-数,2
22時,名詞-一般,2
分,名詞-接尾-助数詞,2
比率,名詞-一般,2
3000,名詞-一般,2
円,名詞-一般,2
水準,名詞-一般,2
説明,名詞-サ変接続,2
以下,名詞-非自立-副詞可能,2
118,名詞-数,2
10月,名詞-一般,2
割合,名詞-一般,2
初めて,名詞-一般,2
落ち込み,名詞-一般,2
上,名詞-接尾-副詞可能,2
ファミリー,名詞-一般,2
オープン,名詞-一般,2
90,名詞-数,2
人数,名詞-一般,2
社長,名詞-一般,2
求人,名詞-サ変接続,2
人材,名詞-一般,2
上,名詞-非自立-副詞可能,2
想定,名詞-サ変接続,2
イズミ,名詞-固有名詞-組織,2
福岡県,名詞-一般,2
広島,名詞-固有名詞-地域-一般,2
住居,名詞-一般,2
関連,名詞-サ変接続,2
61,名詞-数,2
社,名詞-接尾-助数詞,2
コロナ,名詞-一般,2
ウィルス,名詞-一般,2
三越伊勢丹,名詞-一般,2
首都圏,名詞-一般,2
三越,名詞-一般,2
オンライン,名詞-一般,2
ショップ,名詞-一般,2
伊勢丹,名詞-一般,2
社員,名詞-一般,2
現時点,名詞-一般,2
うち,名詞-一般,2
メンズ,名詞-一般,2
印,名詞-一般,2
ギフト,名詞-一般,2
そごう,名詞-固有名詞-組織,2
西武,名詞-一般,2
から,名詞-一般,2
上半期,名詞-一般,2
17,名詞-数,2
前期,名詞-一般,2
達成,名詞-サ変接続,2
ネット,名詞-一般,2
特徴,名詞-一般,2
300,名詞-数,2
アプリ,名詞-一般,2
400,名詞-数,2
35,名詞-数,2
業績,名詞-一般,2
予想,名詞-サ変接続,2
急減,名詞-サ変接続,2
3種類,名詞-一般,2
さん,名詞-接尾-人名,2
助け,名詞-一般,2
バージョン,名詞-一般,2
これら,名詞-代名詞-一般,2
調達,名詞-サ変接続,2
企画,名詞-一般,2
告知,名詞-サ変接続,2
負荷,名詞-サ変接続,2
低減,名詞-サ変接続,2
://,名詞-サ変接続,2
/,名詞-サ変接続,2
セブンプレミアム,名詞-一般,2
魚惣菜,名詞-一般,2
品,名詞-接尾-助数詞,2
リニューアル,名詞-一般,2
以来,名詞-副詞可能,2
後,名詞-非自立-副詞可能,2
家庭,名詞-一般,2
際,名詞-非自立-副詞可能,2
個,名詞-接尾-助数詞,2
冷蔵,名詞-一般,2
工程,名詞-一般,2
本来,名詞-副詞可能,2
鮭,名詞-一般,2
感,名詞-接尾-一般,2
追加,名詞-サ変接続,2
ほっけ,名詞-一般,2
物流,名詞-一般,2
発熱,名詞-サ変接続,2
連携,名詞-サ変接続,2
もと,名詞-一般,2
ファミリーマート,名詞-一般,2
休校,名詞-サ変接続,2
食事,名詞-一般,2
バンク,名詞-一般,2
寄贈,名詞-サ変接続,2
納品,名詞-サ変接続,2
応募,名詞-サ変接続,2
採用,名詞-サ変接続,2
ポスター,名詞-一般,2
29,名詞-数,2
24,名詞-数,2
めど,名詞-一般,2
本格的,名詞-一般,2
聯,名詞-一般,2
發國,名詞-一般,2
際,名詞-接尾-一般,2
餐飲,名詞-一般,2
出資,名詞-サ変接続,2
文化,名詞-一般,2
500,名詞-数,2
杯,名詞-接尾-助数詞,2
加盟店,名詞-一般,2
手続,名詞-サ変接続,2
簡略,名詞-形容動詞語幹,2
小,名詞-一般,2
規模,名詞-一般,2
手当,名詞-サ変接続,2
改善,名詞-サ変接続,2
労働,名詞-サ変接続,2
保険,名詞-一般,2
確定,名詞-サ変接続,2
源泉,名詞-一般,2
所得,名詞-一般,2
納付,名詞-サ変接続,2
当たり,名詞-一般,2
人員,名詞-一般,2
任意,名詞-一般,2
業界,名詞-一般,2
垣根,名詞-一般,2
新た,名詞-形容動詞語幹,2
外出,名詞-サ変接続,2
自宅,名詞-一般,2
経験,名詞-サ変接続,2
門真,名詞-固有名詞-地域-一般,2
常時,名詞-副詞可能,2
家族,名詞-一般,2
連絡,名詞-サ変接続,2
調査,名詞-サ変接続,2
教育,名詞-サ変接続,2
取組,名詞-一般,2
翌日,名詞-副詞可能,2
島しょ,名詞-一般,2
教育,名詞-一般,2
常滑,名詞-固有名詞-人名-姓,2
インター,名詞-一般,2
保健所,名詞-一般,2
者,名詞-非自立-一般,2
博物館,名詞-一般,2
公園,名詞-一般,2
都府県,名詞-一般,2
一方,名詞-非自立-副詞可能,2
その他,名詞-一般,2
接待,名詞-一般,2
飲食店,名詞-一般,2
屋内,名詞-一般,2
カラオケ,名詞-一般,2
ハウス,名詞-一般,2
密接,名詞-サ変接続,2
滞在,名詞-サ変接続,2
レジ,名詞-一般,2
床,名詞-一般,2
密閉,名詞-一般,2
換気,名詞-サ変接続,2
対面,名詞-サ変接続,2
ビニール,名詞-一般,2
機会,名詞-一般,2
時,名詞-接尾-副詞可能,2
体調,名詞-一般,2
対,名詞-接続詞的,2
処方,名詞-サ変接続,2
針,名詞-一般,2
特措法,名詞-一般,2
条,名詞-接尾-助数詞,2
項,名詞-接尾-助数詞,2
種,名詞-一般,2
ごと,名詞-接尾-一般,2
態様,名詞-一般,2
社会,名詞-一般,2
経済,名詞-一般,2
開放,名詞-サ変接続,2
タリーズコーヒー,名詞-一般,2
各社,名詞-一般,2
体制,名詞-一般,2
神奈川,名詞-固有名詞-地域-一般,2
石,名詞-一般,2
川,名詞-一般,2
岐阜,名詞-固有名詞-地域-一般,2
京都,名詞-一般,2
上記,名詞-一般,2
エリア,名詞-一般,2
福井,名詞-固有名詞-地域-一般,2
広島,名詞-固有名詞-組織,2
280,名詞-数,2
開店,名詞-一般,2
お買い物,名詞-一般,2
旬,名詞-一般,2
テナント,名詞-一般,2
内,名詞-接尾-一般,2
作業場,名詞-一般,2
木,名詞-一般,2
鳥貴族,名詞-一般,2
大庄,名詞-固有名詞-組織,2
チムニー,名詞-一般,2
変更,名詞-サ変接続,2
工場,名詞-一般,2
キッズ,名詞-一般,2
布マスク,名詞-一般,2
ろ過,名詞-サ変接続,2
効率,名詞-一般,2
サージカルマスク,名詞-一般,2
10,名詞-数,2
E,名詞-一般,2
コマース,名詞-一般,2
60,名詞-数,2
最大,名詞-一般,2
野沢,名詞-固有名詞-人名-姓,2
行動,名詞-一般,2
総菜,名詞-一般,2
）～,名詞-サ変接続,2
見える化,名詞-一般,2
ひっ迫,名詞-サ変接続,2
2817,名詞-数,1
度,名詞-接尾-一般,1
イメージ,名詞-サ変接続,1
和,名詞-一般,1
味わい,名詞-一般,1
大満足,名詞-一般,1
2種,名詞-一般,1
バーガー,名詞-一般,1
醤油,名詞-一般,1
醬油,名詞-一般,1
ベーコン,名詞-一般,1
トマト,名詞-一般,1
サムライ,名詞-一般,1
マック,名詞-一般,1
江崎グリコ,名詞-一般,1
マックシェイク,名詞-一般,1
プッチ,名詞-一般,1
ン,名詞-非自立-一般,1
人気,名詞-一般,1
パイ,名詞-一般,1
ベーコンポテトパイ,名詞-一般,1
改め,名詞-一般,1
ベーコンポテトパイセンズ,名詞-固有名詞-一般,1
ライフコーポレーション,名詞-固有名詞-組織,1
千里,名詞-副詞可能,1
高槻,名詞-固有名詞-地域-一般,1
川西,名詞-固有名詞-人名-姓,1
宝塚,名詞-固有名詞-地域-一般,1
西宮,名詞-固有名詞-地域-一般,1
大井,名詞-固有名詞-地域-一般,1
館,名詞-接尾-一般,1
都築,名詞-固有名詞-人名-姓,1
御影,名詞-固有名詞-地域-一般,1
あまがさき,名詞-一般,1
コメリ,名詞-固有名詞-組織,1
下,名詞-接尾-一般,1
前線,名詞-一般,1
感謝,名詞-一般,1
意,名詞-一般,1
198,名詞-数,1
月次,名詞-一般,1
情報,名詞-一般,1
44,名詞-数,1
54,名詞-数,1
42,名詞-数,1
20時,名詞-一般,1
398,名詞-数,1
21時,名詞-一般,1
79,名詞-数,1
58,名詞-数,1
2200,名詞-数,1
2300,名詞-数,1
GHD,名詞-一般,1
消費,名詞-サ変接続,1
増税,名詞-一般,1
軽減税率,名詞-一般,1
適用,名詞-一般,1
34,名詞-数,1
手巻き寿司セット,名詞-一般,1
復刻,名詞-一般,1
Web,名詞-一般,1
経由,名詞-サ変接続,1
デジタル,名詞-一般,1
子供,名詞-一般,1
日,名詞-非自立-副詞可能,1
カバー,名詞-一般,1
別売,名詞-サ変接続,1
動向,名詞-一般,1
個人,名詞-一般,1
ファーストフード,名詞-一般,1
牛丼,名詞-一般,1
小さい,名詞-一般,1
多人数,名詞-一般,1
アルコール,名詞-一般,1
悪化,名詞-サ変接続,1
直面,名詞-サ変接続,1
4人,名詞-一般,1
お客,名詞-一般,1
ランチ,名詞-一般,1
ことか,名詞-一般,1
奏功,名詞-サ変接続,1
幅,名詞-一般,1
堀江,名詞-固有名詞-人名-姓,1
陽,名詞-固有名詞-人名-名,1
入れ替わり,名詞-一般,1
例年,名詞-一般,1
どおり,名詞-接尾-一般,1
一つ,名詞-一般,1
選択肢,名詞-一般,1
67,名詞-数,1
県,名詞-一般,1
指定,名詞-一般,1
業種,名詞-一般,1
通常,名詞-一般,1
大手,名詞-一般,1
のぞき,名詞-一般,1
小型,名詞-一般,1
正式,名詞-形容動詞語幹,1
ファッション,名詞-一般,1
リビング,名詞-一般,1
半分,名詞-副詞可能,1
強,名詞-接尾-一般,1
掲載,名詞-サ変接続,1
最小限,名詞-一般,1
出社,名詞-サ変接続,1
要望,名詞-サ変接続,1
お中元,名詞-一般,1
EC,名詞-一般,1
大丸松坂屋百貨店,名詞-一般,1
心斎橋,名詞-固有名詞-地域-一般,1
立地,名詞-一般,1
松坂屋,名詞-一般,1
長期,名詞-一般,1
利便性,名詞-一般,1
観点,名詞-一般,1
三田,名詞-固有名詞-地域-一般,1
博多,名詞-固有名詞-地域-一般,1
同様,名詞-形容動詞語幹,1
日本橋,名詞-固有名詞-地域-一般,1
S,名詞-一般,1
C,名詞-一般,1
安定,名詞-一般,1
横浜,名詞-固有名詞-地域-一般,1
7階,名詞-一般,1
友の会,名詞-一般,1
券,名詞-接尾-一般,1
タカシマヤ,名詞-一般,1
カード,名詞-一般,1
カウンター,名詞-一般,1
サロン,名詞-一般,1
いずれ,名詞-代名詞-一般,1
区域,名詞-一般,1
内容,名詞-一般,1
範囲,名詞-一般,1
収益,名詞-一般,1
1081,名詞-数,1
7000,名詞-一般,1
同期,名詞-一般,1
82,名詞-数,1
3500,名詞-数,1
引前,名詞-一般,1
78,名詞-数,1
8300,名詞-数,1
親,名詞-一般,1
帰属,名詞-サ変接続,1
当期,名詞-一般,1
8700,名詞-数,1
出店,名詞-サ変接続,1
堅調,名詞-形容動詞語幹,1
順調,名詞-形容動詞語幹,1
本格,名詞-一般,1
香港,名詞-一般,1
シンガポール,名詞-固有名詞-地域-国,1
3号,名詞-一般,1
東日本,名詞-固有名詞-地域-一般,1
西日本,名詞-固有名詞-地域-一般,1
都市,名詞-一般,1
未,名詞-一般,1
達,名詞-接尾-一般,1
着実,名詞-形容動詞語幹,1
対処,名詞-サ変接続,1
対比,名詞-サ変接続,1
ローカル,名詞-一般,1
とも,名詞-接尾-一般,1
テレビ番組,名詞-一般,1
キャンペーン,名詞-一般,1
本マグロ,名詞-一般,1
貫,名詞-接尾-助数詞,1
盛り,名詞-一般,1
ジャンボ,名詞-一般,1
ほたて貝柱,名詞-一般,1
アクティブ,名詞-一般,1
ユーザー,名詞-一般,1
突破,名詞-サ変接続,1
来店,名詞-サ変接続,1
利用者,名詞-一般,1
割,名詞-接尾-助数詞,1
ツイッターフォロワー,名詞-一般,1
伸長,名詞-サ変接続,1
563,名詞-数,1
37,名詞-数,1
600,名詞-数,1
連結,名詞-サ変接続,1
段階,名詞-一般,1
合理的,名詞-一般,1
困難,名詞-形容動詞語幹,1
未定,名詞-形容動詞語幹,1
サービス,名詞-一般,1
一環,名詞-一般,1
果物,名詞-一般,1
税込,名詞-一般,1
送料,名詞-一般,1
上旬,名詞-副詞可能,1
応援,名詞-一般,1
学校給食,名詞-一般,1
生産者,名詞-一般,1
安値,名詞-一般,1
廃棄,名詞-サ変接続,1
チェーン,名詞-一般,1
仕分け,名詞-一般,1
協業,名詞-サ変接続,1
一,名詞-数,1
まつの,名詞-固有名詞-人名-名,1
メイン,名詞-一般,1
梱包,名詞-サ変接続,1
宅配,名詞-一般,1
受付,名詞-サ変接続,1
配送,名詞-サ変接続,1
代金,名詞-一般,1
収受,名詞-サ変接続,1
設計,名詞-サ変接続,1
販促,名詞-一般,1
経営,名詞-一般,1
買物,名詞-サ変接続,1
提案,名詞-サ変接続,1
関係,名詞-サ変接続,1
構築,名詞-サ変接続,1
00,名詞-数,1
2700,名詞-数,1
軒,名詞-接尾-助数詞,1
年度,名詞-接尾-助数詞,1
農薬,名詞-一般,1
化学,名詞-一般,1
肥料,名詞-一般,1
栽培,名詞-サ変接続,1
フォーム,名詞-一般,1
まつ,名詞-一般,1
ベジタブル,名詞-一般,1
ガーデン,名詞-一般,1
https,名詞-固有名詞-組織,1
www,名詞-一般,1
matsunovege,名詞-一般,1
com,名詞-一般,1
セブン,名詞-一般,1
アイ・ホールディングス,名詞-一般,1
プライベート,名詞-一般,1
特有,名詞-一般,1
臭い,名詞-一般,1
手間,名詞-一般,1
焼き魚,名詞-一般,1
掃除,名詞-一般,1
悩み,名詞-一般,1
払拭,名詞-サ変接続,1
簡単,名詞-一般,1
便利,名詞-一般,1
魚料理,名詞-一般,1
食べられる,名詞-一般,1
好評,名詞-一般,1
268,名詞-数,1
2014年,名詞-一般,1
5700,名詞-数,1
人気商品,名詞-一般,1
味付け,名詞-一般,1
焼成,名詞-サ変接続,1
銀鮭,名詞-一般,1
278,名詞-数,1
さ,名詞-接尾-特殊,1
アップ,名詞-一般,1
追求,名詞-サ変接続,1
288,名詞-数,1
切り身,名詞-一般,1
まま,名詞-非自立-副詞可能,1
乾燥,名詞-サ変接続,1
凝縮,名詞-サ変接続,1
J,名詞-一般,1
フロントリテイリング,名詞-一般,1
札幌,名詞-固有名詞-地域-一般,1
従業,名詞-サ変接続,1
委託,名詞-サ変接続,1
祝,名詞-一般,1
行政,名詞-一般,1
産業,名詞-一般,1
医,名詞-接尾-一般,1
接点,名詞-一般,1
以前,名詞-副詞可能,1
アルコール消毒,名詞-一般,1
給食,名詞-一般,1
食べられない,名詞-一般,1
子ども,名詞-一般,1
たち,名詞-接尾-一般,1
変化,名詞-サ変接続,1
オリジナル,名詞-一般,1
ロールケーキ,名詞-一般,1
パウンドケーキ,名詞-一般,1
4種類,名詞-一般,1
期限,名詞-一般,1
包装,名詞-サ変接続,1
破損,名詞-サ変接続,1
過剰,名詞-形容動詞語幹,1
在庫,名詞-一般,1
印字,名詞-サ変接続,1
ミス,名詞-サ変接続,1
理由,名詞-一般,1
流通,名詞-サ変接続,1
人々,名詞-一般,1
認定,名詞-サ変接続,1
NPO,名詞-一般,1
法人,名詞-一般,1
飲食業,名詞-一般,1
･,名詞-サ変接続,1
宿泊,名詞-一般,1
就労,名詞-サ変接続,1
今般,名詞-副詞可能,1
スタッフ,名詞-一般,1
募集,名詞-一般,1
形態,名詞-一般,1
正社員,名詞-一般,1
限定,名詞-一般,1
掲示,名詞-サ変接続,1
QRコード,名詞-一般,1
https,名詞-一般,1
genky,名詞-一般,1
-,名詞-サ変接続,1
job,名詞-一般,1
jp,名詞-一般,1
2900,名詞-数,1
時,名詞-接尾-助数詞,1
代表,名詞-サ変接続,1
Sharetea,名詞-固有名詞-組織,1
保有,名詞-サ変接続,1
設立,名詞-サ変接続,1
Japan,名詞-一般,1
資本,名詞-一般,1
子会社,名詞-一般,1
クリエイティブ,名詞-一般,1
ダイニング,名詞-一般,1
70,名詞-数,1
今年度,名詞-副詞可能,1
号,名詞-接尾-一般,1
オープン,名詞-サ変接続,1
盛ん,名詞-形容動詞語幹,1
新鮮,名詞-一般,1
良質,名詞-形容動詞語幹,1
1992年,名詞-一般,1
創業,名詞-サ変接続,1
アジア,名詞-固有名詞-地域-一般,1
欧米,名詞-一般,1
8カ国,名詞-一般,1
世界,名詞-一般,1
年間,名詞-一般,1
タピオカミルクティー,名詞-一般,1
3カ月,名詞-一般,1
75,名詞-数,1
別,名詞-一般,1
テイスト,名詞-一般,1
成長,名詞-一般,1
貢献,名詞-サ変接続,1
寿司,名詞-一般,1
でも,名詞-一般,1
多く,名詞-副詞可能,1
体験,名詞-一般,1
留,名詞-固有名詞-地域-一般,1
浩一,名詞-固有名詞-人名-名,1
ベース,名詞-一般,1
カフェ部,名詞-一般,1
強み,名詞-一般,1
いいもの,名詞-一般,1
アレンジ,名詞-一般,1
大切,名詞-一般,1
当社,名詞-一般,1
フランチャイザー,名詞-一般,1
参加,名詞-サ変接続,1
側,名詞-接尾-一般,1
意向,名詞-一般,1
輩出,名詞-サ変接続,1
担当,名詞-サ変接続,1
厚生,名詞-一般,1
労働省,名詞-固有名詞-組織,1
迅速,名詞-形容動詞語幹,1
意見,名詞-サ変接続,1
小規模,名詞-形容動詞語幹,1
料,名詞-一般,1
申告,名詞-サ変接続,1
１,名詞-数,1
俸給,名詞-一般,1
給料,名詞-一般,1
数,名詞-一般,1
所定,名詞-一般,1
日数,名詞-一般,1
1カ月,名詞-一般,1
広,名詞-固有名詞-一般,1
先行,名詞-サ変接続,1
表明,名詞-サ変接続,1
詳細,名詞-形容動詞語幹,1
後日,名詞-副詞可能,1
問い合わせ,名詞-サ変接続,1
更,名詞-形容動詞語幹,1
スーパーマーケット,名詞-一般,1
契約,名詞-サ変接続,1
締結,名詞-サ変接続,1
都,名詞-接尾-地域,1
48,名詞-数,1
日用品,名詞-一般,1
需要,名詞-一般,1
喫緊,名詞-一般,1
課題,名詞-一般,1
面,名詞-接尾-一般,1
休職,名詞-サ変接続,1
扱い,名詞-サ変接続,1
タミ,名詞-固有名詞-一般,1
働く,名詞-一般,1
場所,名詞-一般,1
接客,名詞-サ変接続,1
いか,名詞-一般,1
ロピア,名詞-固有名詞-一般,1
知見,名詞-一般,1
視野,名詞-一般,1
後,名詞-接尾-副詞可能,1
相乗,名詞-サ変接続,1
期待,名詞-サ変接続,1
エイチ・ツー・オー,名詞-一般,1
リテイリング,名詞-一般,1
守口,名詞-固有名詞-地域-一般,1
在住,名詞-サ変接続,1
罹患,名詞-サ変接続,1
本人,名詞-一般,1
異常,名詞-形容動詞語幹,1
全て,名詞-副詞可能,1
区,名詞-一般,1
市町村,名詞-一般,1
参考,名詞-サ変接続,1
停止,名詞-サ変接続,1
経過,名詞-サ変接続,1
春季,名詞-一般,1
終了,名詞-サ変接続,1
インフルエンザ,名詞-一般,1
長,名詞-接尾-一般,1
代理,名詞-サ変接続,1
都知事,名詞-一般,1
ベイシア,名詞-一般,1
常滑,名詞-固有名詞-地域-一般,1
判定,名詞-サ変接続,1
報告,名詞-サ変接続,1
ところ,名詞-非自立-副詞可能,1
重点的,名詞-形容動詞語幹,1
神奈川県,名詞-一般,1
まん延,名詞-サ変接続,1
石川県,名詞-一般,1
岐阜県,名詞-一般,1
京都府,名詞-一般,1
道府県,名詞-一般,1
理髪店,名詞-一般,1
質屋,名詞-一般,1
サービス,名詞-サ変接続,1
食堂,名詞-一般,1
スポーツジム,名詞-一般,1
運動,名詞-一般,1
バー,名詞-一般,1
キャバレー,名詞-一般,1
ナイト,名詞-一般,1
ライブ,名詞-一般,1
段,名詞-一般,1
推進,名詞-サ変接続,1
室,名詞-接尾-一般,1
知事,名詞-一般,1
事務,名詞-一般,1
例,名詞-一般,1
スーパー,名詞-一般,1
間隔,名詞-一般,1
等,名詞-固有名詞-人名-名,1
全般,名詞-一般,1
頻繁,名詞-形容動詞語幹,1
窓,名詞-一般,1
扇風機,名詞-一般,1
場,名詞-一般,1
カーテン,名詞-一般,1
共用,名詞-サ変接続,1
キャッシュレス化,名詞-一般,1
長い,名詞-一般,1
チェック,名詞-一般,1
休憩,名詞-一般,1
分散,名詞-サ変接続,1
45,名詞-数,1
美術館,名詞-一般,1
図書館,名詞-一般,1
屋外,名詞-一般,1
閉鎖,名詞-サ変接続,1
ゴルフ場,名詞-一般,1
ロッカー,名詞-一般,1
ルーム,名詞-一般,1
懇談会,名詞-一般,1
食事会,名詞-一般,1
原則,名詞-一般,1
ター,名詞-一般,1
誘導,名詞-サ変接続,1
徹底的,名詞-一般,1
室内,名詞-一般,1
距離,名詞-一般,1
管理者,名詞-一般,1
本部,名詞-一般,1
33,名詞-数,1
回,名詞-接尾-助数詞,1
配布,名詞-サ変接続,1
ドトールコーヒー,名詞-一般,1
コーヒーショップ,名詞-一般,1
450,名詞-数,1
三,名詞-数,1
幕,名詞-一般,1
飛沫,名詞-一般,1
金銭,名詞-一般,1
授受,名詞-サ変接続,1
マネー,名詞-一般,1
トレイ,名詞-一般,1
用意,名詞-サ変接続,1
自体,名詞-一般,1
270,名詞-数,1
時短営業,名詞-一般,1
200,名詞-数,1
合わせ,名詞-一般,1
480,名詞-数,1
広報,名詞-サ変接続,1
ソーシャルディスタンス,名詞-一般,1
FC,名詞-固有名詞-組織,1
おいしいコーヒー,名詞-一般,1
いつも,名詞-一般,1
購入,名詞-サ変接続,1
コーヒー豆,名詞-一般,1
たい,名詞-一般,1
ドトール,名詞-一般,1
336,名詞-数,1
970,名詞-数,1
306,名詞-数,1
都合,名詞-一般,1
大変,名詞-形容動詞語幹,1
不便,名詞-一般,1
努力,名詞-一般,1
前後,名詞-副詞可能,1
余裕,名詞-一般,1
お願い,名詞-サ変接続,1
エンタテイメント,名詞-一般,1
MAGNET,名詞-固有名詞-組織,1
by,名詞-一般,1
拡散,名詞-一般,1
休館,名詞-サ変接続,1
マツモトキヨシ,名詞-一般,1
新宿区,名詞-一般,1
どら,名詞-一般,1
ぐぱぱす,名詞-一般,1
大久保,名詞-固有名詞-人名-姓,1
17時,名詞-一般,1
のち,名詞-非自立-副詞可能,1
沖縄県,名詞-一般,1
浦添,名詞-固有名詞-地域-一般,1
西海岸,名詞-一般,1
パルコ,名詞-一般,1
シティ,名詞-一般,1
下寺,名詞-固有名詞-地域-一般,1
確認,名詞-サ変接続,1
帯,名詞-一般,1
8時,名詞-一般,1
12時,名詞-一般,1
品,名詞-一般,1
出し,名詞-接尾-一般,1
当該,名詞-一般,1
館内,名詞-固有名詞-地域-一般,1
専門,名詞-一般,1
管轄,名詞-サ変接続,1
相談,名詞-サ変接続,1
経緯,名詞-一般,1
機関,名詞-一般,1
393,名詞-数,1
公表,名詞-サ変接続,1
246,名詞-数,1
うえ,名詞-非自立-副詞可能,1
庄,名詞-固有名詞-地域-一般,1
茶屋,名詞-一般,1
416,名詞-数,1
カフェ,名詞-一般,1
サービスエリア,名詞-一般,1
はな,名詞-一般,1
舞,名詞-一般,1
さかなや,名詞-一般,1
道場,名詞-一般,1
250,名詞-数,1
ランチ営業,名詞-一般,1
アイソレーションガウン,名詞-固有名詞-一般,1
プラットフォーム,名詞-一般,1
プロダクション,名詞-一般,1
ナーズ,名詞-一般,1
主導,名詞-サ変接続,1
カ所,名詞-接尾-助数詞,1
防護,名詞-サ変接続,1
着衣,名詞-サ変接続,1
手術,名詞-サ変接続,1
施術,名詞-サ変接続,1
簡易,名詞-形容動詞語幹,1
処理,名詞-サ変接続,1
面会,名詞-サ変接続,1
コスト,名詞-一般,1
性能,名詞-一般,1
アイソレーションガウン,名詞-一般,1
不織布,名詞-一般,1
撥水,名詞-一般,1
見込み,名詞-一般,1
社内,名詞-一般,1
500円,名詞-一般,1
1300,名詞-数,1
幼児,名詞-一般,1
1200,名詞-数,1
スウェーデン,名詞-一般,1
社,名詞-接尾-一般,1
抗菌,名詞-一般,1
防臭,名詞-一般,1
加工,名詞-一般,1
技術,名詞-一般,1
900,名詞-数,1
800,名詞-数,1
BFE,名詞-一般,1
細菌,名詞-一般,1
95,名詞-数,1
PFE,名詞-一般,1
微粒子,名詞-一般,1
1種,名詞-一般,1
50枚,名詞-一般,1
入り,名詞-接尾-サ変接続,1
2500,名詞-数,1
プレミアム,名詞-一般,1
会員,名詞-一般,1
十分,名詞-形容動詞語幹,1
次第,名詞-副詞可能,1
ワールドオンラインストア,名詞-一般,1
予約,名詞-一般,1
官公庁,名詞-一般,1
向け,名詞-接尾-一般,1
ファーストリテイリング,名詞-固有名詞-組織,1
兆,名詞-数,1
2905,名詞-数,1
ユニクロ,名詞-一般,1
速報,名詞-サ変接続,1
713,名詞-数,1
56,名詞-数,1
769,名詞-数,1
57,名詞-数,1
減収,名詞-サ変接続,1
299,名詞-数,1
311,名詞-数,1
除外,名詞-サ変接続,1
サミット,名詞-一般,1
世田谷区,名詞-一般,1
感染者,名詞-一般,1
歴,名詞-接尾-一般,1
同居,名詞-サ変接続,1
熱,名詞-一般,1
症状,名詞-一般,1
念,名詞-一般,1
待機,名詞-サ変接続,1
16時,名詞-一般,1
手洗い,名詞-一般,1
履歴,名詞-一般,1
野沢,名詞-固有名詞-地域-一般,1
部門,名詞-一般,1
朝,名詞-一般,1
夕方,名詞-一般,1
日,名詞-一般,1
製造,名詞-サ変接続,1
午前中,名詞-一般,1
早退,名詞-サ変接続,1
27,名詞-数,1
PCR,名詞-固有名詞-組織,1
概要,名詞-一般,1
客観,名詞-サ変接続,1
府民,名詞-一般,1
変容,名詞-サ変接続,1
数等,名詞-副詞可能,1
柱,名詞-一般,1
指針,名詞-一般,1
具体的,名詞-一般,1
日々,名詞-副詞可能,1
事,名詞-非自立-一般,1
爆発,名詞-サ変接続,1
兆候,名詞-一般,1
収束,名詞-サ変接続,1
今月,名詞-副詞可能,1
中旬,名詞-副詞可能,1
分析,名詞-サ変接続,1
事項,名詞-一般,1
市中,名詞-一般,1
病床,名詞-一般,1
リンク,名詞-サ変接続,1
不明者,名詞-一般,1
10人,名詞-一般,1
診断,名詞-サ変接続,1
受入,名詞-一般,1
重症,名詞-一般,1
病,名詞-接尾-一般,1
日間,名詞-接尾-助数詞,1
連続,名詞-サ変接続,1