％,名詞-接尾-助数詞,94
.,名詞-サ変接続,90
月,名詞-一般,78
店,名詞-一般,77
1,名詞-一般,63
5,名詞-数,52
増,名詞-接尾-一般,46
売上,名詞-一般,42
減,名詞-接尾-一般,41
日,名詞-接尾-助数詞,41
円,名詞-接尾-助数詞,40
店舗,名詞-一般,39
4,名詞-数,38
億,名詞-数,36
2,名詞-数,34
こと,名詞-非自立-一般,31
高,名詞-接尾-一般,29
万,名詞-数,29
3,名詞-数,27
営業,名詞-一般,27
年,名詞-接尾-助数詞,26
等,名詞-接尾-一般,25
ため,名詞-非自立-副詞可能,19
事業,名詞-一般,19
既存,名詞-サ変接続,18
感染,名詞-一般,17
発表,名詞-サ変接続,16
8,名詞-数,16
6,名詞-数,16
衛生,名詞-一般,16
単価,名詞-一般,15
実施,名詞-サ変接続,15
商品,名詞-一般,15
客,名詞-一般,14
0,名詞-数,14
新型コロナウイルス,名詞-一般,14
全国,名詞-一般,14
販売,名詞-一般,14
客数,名詞-一般,13
拡大,名詞-サ変接続,13
また,名詞-一般,13
施設,名詞-サ変接続,13
再開,名詞-サ変接続,13
2020,名詞-数,12
対応,名詞-サ変接続,12
生活,名詞-一般,12
緊急,名詞-形容動詞語幹,12
お客,名詞-一般,12
7,名詞-数,11
食品,名詞-一般,11
20,名詞-数,11
開店,名詞-一般,11
-,名詞-サ変接続,11
向上,名詞-サ変接続,10
9,名詞-数,10
サービス,名詞-一般,10
提供,名詞-サ変接続,10
管理,名詞-サ変接続,10
人,名詞-一般,10
時,名詞-接尾-副詞可能,10
場合,名詞-副詞可能,10
直営,名詞-サ変接続,10
期,名詞-接尾-一般,9
比,名詞-接尾-一般,9
症,名詞-接尾-一般,9
グループ,名詞-一般,9
事態,名詞-一般,9
削減,名詞-サ変接続,9
強化,名詞-サ変接続,9
出店,名詞-一般,9
台,名詞-一般,9
時間,名詞-一般,9
従業員,名詞-一般,9
入店,名詞-一般,9
利用,名詞-サ変接続,9
12,名詞-数,8
前年,名詞-副詞可能,8
14,名詞-数,8
数,名詞-接尾-一般,8
構造,名詞-一般,8
力,名詞-接尾-一般,8
宣言,名詞-サ変接続,8
継続,名詞-サ変接続,8
計画,名詞-サ変接続,8
2019,名詞-数,8
活用,名詞-サ変接続,8
確保,名詞-サ変接続,8
環境,名詞-一般,8
15,名詞-数,8
～,名詞-サ変接続,8
同業,名詞-一般,8
組合,名詞-一般,8
会,名詞-接尾-一般,8
客席,名詞-一般,8
店内,名詞-一般,8
ラムネ,名詞-一般,8
地域,名詞-一般,8
利益,名詞-一般,8
取り組み,名詞-一般,7
状況,名詞-一般,7
初,名詞-一般,7
10時,名詞-一般,7
フード,名詞-一般,7
業,名詞-接尾-一般,7
工夫,名詞-サ変接続,7
安全,名詞-一般,7
間隔,名詞-一般,7
テイクアウト,名詞-一般,7
よう,名詞-非自立-助動詞語幹,7
提案,名詞-サ変接続,7
来店,名詞-サ変接続,7
森永,名詞-一般,7
オリジナル,名詞-一般,7
性,名詞-接尾-一般,7
対策,名詞-サ変接続,6
から,名詞-一般,6
外食,名詞-一般,6
影響,名詞-サ変接続,6
今後,名詞-副詞可能,6
的,名詞-接尾-形容動詞語幹,6
経営,名詞-一般,6
木,名詞-一般,6
18,名詞-数,6
市,名詞-接尾-地域,6
､,名詞-サ変接続,6
県,名詞-接尾-地域,6
月次,名詞-一般,6
要請,名詞-サ変接続,6
ガイドライン,名詞-一般,6
連合,名詞-サ変接続,6
デリバリーサービス,名詞-一般,6
m,名詞-一般,6
飲食店,名詞-一般,6
持ち帰り,名詞-一般,6
使用,名詞-サ変接続,6
POS,名詞-一般,6
買い物,名詞-一般,6
業績,名詞-一般,6
21,名詞-数,5
改革,名詞-サ変接続,5
徹底,名詞-サ変接続,5
設備,名詞-サ変接続,5
会社,名詞-一般,5
部門,名詞-一般,5
検討,名詞-サ変接続,5
開始,名詞-サ変接続,5
配置,名詞-サ変接続,5
導入,名詞-サ変接続,5
(,名詞-サ変接続,5
),名詞-サ変接続,5
年間,名詞-一般,5
一部,名詞-副詞可能,5
協会,名詞-一般,5
テーブル,名詞-一般,5
防止,名詞-サ変接続,5
以上,名詞-非自立-副詞可能,5
消毒,名詞-サ変接続,5
情報,名詞-一般,5
29,名詞-数,5
当面,名詞-副詞可能,5
現在,名詞-副詞可能,5
マックシェイク,名詞-一般,5
200,名詞-数,5
40,名詞-数,5
スタイル,名詞-一般,5
移動,名詞-一般,5
活動,名詞-サ変接続,5
容器,名詞-一般,5
プラスチック,名詞-一般,5
g,名詞-一般,5
決済,名詞-サ変接続,5
度,名詞-接尾-一般,4
衣料,名詞-一般,4
売場,名詞-一般,4
ロイヤル,名詞-一般,4
社会,名詞-一般,4
変化,名詞-サ変接続,4
設置,名詞-サ変接続,4
新しい,名詞-一般,4
実現,名詞-サ変接続,4
減額,名詞-サ変接続,4
自粛,名詞-サ変接続,4
整備,名詞-サ変接続,4
注力,名詞-サ変接続,4
化,名詞-接尾-サ変接続,4
10,名詞-数,4
計,名詞-接尾-一般,4
策定,名詞-サ変接続,4
町,名詞-接尾-地域,4
案内,名詞-サ変接続,4
神奈川,名詞-固有名詞-地域-一般,4
ニトリ,名詞-一般,4
17,名詞-数,4
もの,名詞-非自立-一般,4
事業者,名詞-一般,4
今回,名詞-副詞可能,4
カウンター,名詞-一般,4
飛沫,名詞-一般,4
一,名詞-数,4
可能,名詞-形容動詞語幹,4
点,名詞-接尾-助数詞,4
合計,名詞-サ変接続,4
ミニソフ,名詞-一般,4
吉祥寺,名詞-固有名詞-地域-一般,4
これ,名詞-代名詞-一般,4
20時,名詞-一般,4
高島屋,名詞-一般,4
タカシマヤ,名詞-一般,4
カップ,名詞-一般,4
宅配,名詞-一般,4
ID,名詞-一般,4
データ,名詞-一般,4
支援,名詞-サ変接続,4
解除,名詞-サ変接続,4
中止,名詞-サ変接続,4
品,名詞-接尾-助数詞,4
予想,名詞-サ変接続,4
ローソン,名詞-一般,4
ドリンク,名詞-一般,4
ヨーグルト,名詞-一般,4
王将,名詞-一般,4
岐阜,名詞-固有名詞-地域-一般,4
実績,名詞-一般,3
品,名詞-接尾-一般,3
28,名詞-数,3
面積,名詞-一般,3
m2,名詞-一般,3
推進,名詞-サ変接続,3
密,名詞-一般,3
企業,名詞-一般,3
集中,名詞-サ変接続,3
収益,名詞-一般,3
全体,名詞-副詞可能,3
閉店,名詞-一般,3
以降,名詞-副詞可能,3
需要,名詞-一般,3
費,名詞-接尾-一般,3
投資,名詞-サ変接続,3
先送り,名詞-サ変接続,3
末,名詞-接尾-副詞可能,3
再編,名詞-サ変接続,3
顧客,名詞-一般,3
成長,名詞-一般,3
市場,名詞-一般,3
基盤,名詞-一般,3
策,名詞-接尾-一般,3
固定,名詞-サ変接続,3
次,名詞-接尾-助数詞,3
効果,名詞-一般,3
桜,名詞-一般,3
横浜,名詞-固有名詞-地域-一般,3
商業,名詞-一般,3
改装,名詞-サ変接続,3
自社,名詞-固有名詞-組織,3
づくり,名詞-接尾-一般,3
概要,名詞-一般,3
所在地,名詞-一般,3
国内,名詞-一般,3
数,名詞-数,3
ホーム,名詞-一般,3
結果,名詞-副詞可能,3
休業,名詞-サ変接続,3
ライフ,名詞-一般,3
同期,名詞-一般,3
別,名詞-接尾-一般,3
日本,名詞-一般,3
基本,名詞-一般,3
下,名詞-接尾-一般,3
取組,名詞-一般,3
業態,名詞-一般,3
メニュー,名詞-一般,3
本格的,名詞-一般,3
具体的,名詞-一般,3
実情,名詞-一般,3
創意,名詞-一般,3
お願い,名詞-サ変接続,3
お客様,名詞-一般,3
構成,名詞-サ変接続,3
配慮,名詞-サ変接続,3
安心,名詞-サ変接続,3
制限,名詞-サ変接続,3
十分,名詞-形容動詞語幹,3
最低,名詞-一般,3
スペース,名詞-一般,3
他の,名詞-一般,3
注文,名詞-サ変接続,3
注意,名詞-サ変接続,3
椅子,名詞-一般,3
100万円,名詞-一般,3
買上,名詞-一般,3
点数,名詞-一般,3
24,名詞-数,3
47,名詞-数,3
小田急,名詞-固有名詞-組織,3
エース,名詞-一般,3
サンロード,名詞-一般,3
11時,名詞-一般,3
時短営業,名詞-一般,3
ブランド,名詞-一般,3
日時,名詞-一般,3
ジェイアール,名詞-一般,3
9日,名詞-一般,3
通常,名詞-一般,3
マスク,名詞-一般,3
着用,名詞-サ変接続,3
健康,名詞-一般,3
手,名詞-一般,3
マクドナルド,名詞-一般,3
コラボレーション,名詞-一般,3
発売,名詞-サ変接続,3
開発,名詞-サ変接続,3
デリバリー,名詞-一般,3
消費者,名詞-一般,3
新た,名詞-形容動詞語幹,3
小売,名詞-サ変接続,3
開催,名詞-サ変接続,3
オンライン,名詞-一般,3
00,名詞-数,3
イオン,名詞-一般,3
栂,名詞-一般,3
美,名詞-一般,3
スーパーマーケット,名詞-一般,3
終日,名詞-副詞可能,3
内,名詞-接尾-一般,3
78,名詞-数,3
業務,名詞-一般,3
生産,名詞-サ変接続,3
改善,名詞-サ変接続,3
連結,名詞-サ変接続,3
トン,名詞-接尾-助数詞,3
ストロー,名詞-一般,3
包装,名詞-サ変接続,3
事,名詞-非自立-一般,3
増加,名詞-サ変接続,3
方法,名詞-一般,3
餃子,名詞-一般,3
マルエツ,名詞-一般,2
ベース,名詞-一般,2
内訳,名詞-一般,2
321,名詞-数,2
36,名詞-数,2
23,名詞-数,2
その他,名詞-一般,2
代表取締役,名詞-一般,2
本,名詞-一般,2
本部,名詞-一般,2
リスク,名詞-一般,2
密閉,名詞-一般,2
密集,名詞-サ変接続,2
密接,名詞-サ変接続,2
様式,名詞-一般,2
急速,名詞-形容動詞語幹,2
インフラ,名詞-一般,2
選択,名詞-サ変接続,2
賃料,名詞-一般,2
政府,名詞-一般,2
発出,名詞-サ変接続,2
外出,名詞-サ変接続,2
57,名詞-数,2
41,名詞-数,2
専門店,名詞-一般,2
物件,名詞-一般,2
70,名詞-数,2
予定,名詞-サ変接続,2
時期,名詞-副詞可能,2
再考,名詞-サ変接続,2
割,名詞-接尾-助数詞,2
預金,名詞-サ変接続,2
50,名詞-数,2
借入,名詞-サ変接続,2
枠,名詞-接尾-一般,2
組織,名詞-サ変接続,2
体制,名詞-一般,2
効率,名詞-一般,2
最大化,名詞-一般,2
間接,名詞-一般,2
見直し,名詞-一般,2
足元,名詞-一般,2
冷凍食品,名詞-一般,2
デリ,名詞-一般,2
拡販,名詞-一般,2
展開,名詞-サ変接続,2
効率化,名詞-一般,2
適正,名詞-形容動詞語幹,2
報酬,名詞-一般,2
それぞれ,名詞-副詞可能,2
30,名詞-数,2
取締役,名詞-一般,2
中,名詞-接尾-副詞可能,2
年,名詞-接尾-一般,2
2030,名詞-数,2
中期,名詞-一般,2
2021,名詞-数,2
時代,名詞-一般,2
生,名詞-一般,2
サミット,名詞-一般,2
ストア,名詞-サ変接続,2
コレットマーレ,名詞-固有名詞-一般,2
目,名詞-一般,2
中区,名詞-一般,2
作業場,名詞-一般,2
場所,名詞-一般,2
共用,名詞-サ変接続,2
休日,名詞-一般,2
2日,名詞-一般,2
オフィス家具,名詞-一般,2
中心,名詞-一般,2
デコ,名詞-一般,2
短縮,名詞-サ変接続,2
27,名詞-数,2
名張,名詞-固有名詞-地域-一般,2
三重,名詞-固有名詞-地域-一般,2
大阪府,名詞-一般,2
19,名詞-数,2
用品,名詞-一般,2
雑貨,名詞-一般,2
6900,名詞-数,2
中央,名詞-一般,2
麺類,名詞-一般,2
飲食,名詞-一般,2
料理,名詞-一般,2
さまざま,名詞-形容動詞語幹,2
者,名詞-接尾-一般,2
必要,名詞-形容動詞語幹,2
提示,名詞-サ変接続,2
Q,名詞-一般,2
一般,名詞-一般,2
混雑,名詞-サ変接続,2
横並び,名詞-一般,2
解説,名詞-サ変接続,2
接触,名詞-サ変接続,2
予防,名詞-サ変接続,2
パーティション,名詞-一般,2
上,名詞-接尾-副詞可能,2
人,名詞-接尾-一般,2
対面,名詞-サ変接続,2
調味料,名詞-一般,2
従来,名詞-副詞可能,2
オークワ,名詞-固有名詞-組織,2
加工食品,名詞-一般,2
住居,名詞-一般,2
MINISOF,名詞-固有名詞-組織,2
ミニソフ,名詞-固有名詞-一般,2
外,名詞-一般,2
新宿,名詞-固有名詞-地域-一般,2
西口,名詞-一般,2
地下,名詞-一般,2
出店,名詞-サ変接続,2
東京,名詞-固有名詞-地域-一般,2
ロゴ,名詞-一般,2
名,名詞-接尾-一般,2
22時,名詞-一般,2
21時,名詞-一般,2
名古屋,名詞-固有名詞-地域-一般,2
ゲートタワー,名詞-一般,2
モール,名詞-一般,2
換気,名詞-サ変接続,2
館内,名詞-一般,2
休憩,名詞-一般,2
室,名詞-接尾-一般,2
人数,名詞-一般,2
指,名詞-一般,2
ソーシャルディスタンス,名詞-固有名詞-一般,2
体調,名詞-一般,2
S,名詞-固有名詞-組織,2
税込,名詞-一般,2
M,名詞-一般,2
夏,名詞-一般,2
爽やか,名詞-形容動詞語幹,2
風味,名詞-一般,2
S,名詞-一般,2
1日,名詞-一般,2
喚起,名詞-サ変接続,2
厚生,名詞-一般,2
労働省,名詞-固有名詞-組織,2
食中毒,名詞-一般,2
加熱,名詞-サ変接続,2
温度,名詞-一般,2
℃,名詞-サ変接続,2
速やか,名詞-形容動詞語幹,2
冷,名詞-一般,2
貼付,名詞-サ変接続,2
仕出し,名詞-一般,2
基準,名詞-一般,2
マーケティング,名詞-一般,2
LIVE,名詞-一般,2
セミナー,名詞-一般,2
ID,名詞-固有名詞-組織,2
視点,名詞-一般,2
受講,名詞-サ変接続,2
料,名詞-一般,2
ダイエー,名詞-固有名詞-組織,2
近畿,名詞-固有名詞-地域-一般,2
直接,名詞-副詞可能,2
品目,名詞-一般,2
以外,名詞-非自立-副詞可能,2
かつ,名詞-一般,2
自治体,名詞-一般,2
間,名詞-一般,2
ドライブ,名詞-一般,2
スルー,名詞-一般,2
食事,名詞-一般,2
社会的,名詞-一般,2
一環,名詞-一般,2
公式,名詞-形容動詞語幹,2
でも,名詞-一般,2
セブン,名詞-一般,2
テナント,名詞-一般,2
62,名詞-数,2
59,名詞-数,2
56,名詞-数,2
L,名詞-固有名詞-組織,2
45,名詞-数,2
無印良品,名詞-一般,2
ホテル,名詞-一般,2
メトロポリタン,名詞-一般,2
鎌倉,名詞-固有名詞-地域-一般,2
閉鎖,名詞-サ変接続,2
好調,名詞-形容動詞語幹,2
推移,名詞-サ変接続,2
いなげや,名詞-一般,2
一人,名詞-一般,2
当たり,名詞-一般,2
マミーマート,名詞-固有名詞-組織,2
9月,名詞-一般,2
決算,名詞-サ変接続,2
経常,名詞-一般,2
親,名詞-一般,2
帰属,名詞-サ変接続,2
当期,名詞-一般,2
統一,名詞-サ変接続,2
財,名詞-接尾-一般,2
育成,名詞-一般,2
行動,名詞-一般,2
積極的,名詞-一般,2
優秀,名詞-形容動詞語幹,2
賞,名詞-接尾-一般,2
東松山,名詞-固有名詞-地域-一般,2
経済,名詞-一般,2
現時点,名詞-一般,2
インパクト,名詞-一般,2
困難,名詞-形容動詞語幹,2
プレーン,名詞-一般,2
ストロベリー,名詞-一般,2
リニューアル,名詞-一般,2
仕様,名詞-一般,2
変更,名詞-サ変接続,2
26,名詞-数,2
量,名詞-接尾-一般,2
目標,名詞-一般,2
増収,名詞-サ変接続,2
原価,名詞-一般,2
促進,名詞-サ変接続,2
多様化,名詞-一般,2
消費,名詞-サ変接続,2
寄与,名詞-サ変接続,2
号,名詞-接尾-一般,2
女性,名詞-一般,2
台湾,名詞-一般,2
北,名詞-一般,2
3783,名詞-数,1
338,名詞-数,1
3100,名詞-数,1
4500,名詞-数,1
7000,名詞-一般,1
住,名詞-一般,1
関連,名詞-サ変接続,1
900,名詞-数,1
500,名詞-数,1
301,名詞-数,1
33,名詞-数,1
5441,名詞-数,1
ホールディングス,名詞-一般,1
黒須,名詞-固有名詞-人名-姓,1
康宏,名詞-固有名詞-人名-名,1
兼,名詞-接続詞的,1
CEO,名詞-一般,1
部長,名詞-一般,1
専門,名詞-一般,1
家,名詞-一般,1
会議,名詞-サ変接続,1
三,名詞-数,1
提言,名詞-サ変接続,1
一翼,名詞-一般,1
存続,名詞-サ変接続,1
早期,名詞-一般,1
回復,名詞-サ変接続,1
像,名詞-接尾-一般,1
出典,名詞-一般,1
HD,名詞-一般,1
直近,名詞-一般,1
採算,名詞-一般,1
動き,名詞-一般,1
ロイヤルホスト,名詞-一般,1
てんや,名詞-一般,1
88,名詞-数,1
急減,名詞-サ変接続,1
激変,名詞-サ変接続,1
賃貸,名詞-一般,1
主,名詞-接尾-一般,1
依頼,名詞-サ変接続,1
程度,名詞-一般,1
一時,名詞-副詞可能,1
手元,名詞-一般,1
94,名詞-数,1
コミットメント,名詞-一般,1
ライン,名詞-一般,1
総額,名詞-一般,1
100,名詞-数,1
着手,名詞-サ変接続,1
ガバナンス,名詞-固有名詞-一般,1
適合,名詞-サ変接続,1
持株,名詞-一般,1
戦略,名詞-一般,1
満足度,名詞-一般,1
期待,名詞-サ変接続,1
分野,名詞-一般,1
資源,名詞-一般,1
投下,名詞-サ変接続,1
蓄積,名詞-サ変接続,1
ノウハウ,名詞-一般,1
拡充,名詞-サ変接続,1
内食,名詞-一般,1
固め,名詞-接尾-一般,1
販路,名詞-一般,1
昨年,名詞-副詞可能,1
本格,名詞-一般,1
自宅,名詞-一般,1
手軽,名詞-一般,1
味,名詞-一般,1
意識,名詞-サ変接続,1
撤退,名詞-サ変接続,1
見極め,名詞-一般,1
迅速,名詞-形容動詞語幹,1
人員,名詞-一般,1
BEP,名詞-固有名詞-組織,1
引下げ,名詞-サ変接続,1
役員,名詞-一般,1
常務,名詞-一般,1
執行役員,名詞-一般,1
月額,名詞-一般,1
本来,名詞-副詞可能,1
ビジョン,名詞-一般,1
赤字,名詞-一般,1
脱却,名詞-サ変接続,1
中,名詞-固有名詞-地域-国,1
上,名詞-非自立-副詞可能,1
2022,名詞-数,1
持続的,名詞-一般,1
スタート,名詞-サ変接続,1
延期,名詞-サ変接続,1
1カ月,名詞-一般,1
2007年,名詞-一般,1
曙町,名詞-固有名詞-地域-一般,1
以来,名詞-副詞可能,1
｡,名詞-サ変接続,1
地階,名詞-一般,1
レイ,名詞-一般,1
アウト,名詞-一般,1
ライブ,名詞-一般,1
感,名詞-接尾-一般,1
内装,名詞-一般,1
サミ,名詞-一般,1
Cafe,名詞-一般,1
近年,名詞-副詞可能,1
支持,名詞-サ変接続,1
ハード,名詞-一般,1
ソフト,名詞-一般,1
面,名詞-接尾-一般,1
最大限,名詞-一般,1
専任,名詞-サ変接続,1
｢,名詞-サ変接続,1
係,名詞-接尾-一般,1
｣,名詞-サ変接続,1
他,名詞-一般,1
居心地,名詞-一般,1
良い店,名詞-一般,1
TEL,名詞-一般,1
045,名詞-数,1
227,名詞-数,1
5162,名詞-数,1
駐車,名詞-サ変接続,1
550,名詞-数,1
輪,名詞-一般,1
220,名詞-数,1
9時,名詞-一般,1
23時,名詞-一般,1
年,名詞-一般,1
6081,名詞-数,1
545,名詞-数,1
テレワーク,名詞-一般,1
推奨,名詞-サ変接続,1
Fun,名詞-一般,1
ウィーク,名詞-一般,1
キャンペーン,名詞-一般,1
延長,名詞-サ変接続,1
TVCM,名詞-固有名詞-組織,1
大型,名詞-一般,1
家電,名詞-一般,1
N,名詞-固有名詞-組織,1
クリック,名詞-一般,1
簡易,名詞-一般,1
収納,名詞-一般,1
ショッピング,名詞-一般,1
センター,名詞-一般,1
行政,名詞-一般,1
形,名詞-一般,1
大丸,名詞-一般,1
下関,名詞-固有名詞-地域-一般,1
山口県,名詞-一般,1
イオンモール,名詞-一般,1
幕張,名詞-固有名詞-地域-一般,1
新都,名詞-一般,1
心,名詞-一般,1
千葉,名詞-固有名詞-地域-一般,1
門真,名詞-固有名詞-地域-一般,1
コーナン,名詞-一般,1
大和,名詞-固有名詞-地域-一般,1
郡,名詞-接尾-地域,1
山,名詞-一般,1
筒井,名詞-一般,1
奈良,名詞-固有名詞-地域-一般,1
移転,名詞-一般,1
コーポレーション,名詞-一般,1
640,名詞-数,1
9600,名詞-数,1
563,名詞-数,1
9900,名詞-数,1
4700,名詞-数,1
家庭,名詞-一般,1
8100,名詞-数,1
275,名詞-数,1
67,名詞-数,1
1750,名詞-数,1
対,名詞-接続詞的,1
処方,名詞-サ変接続,1
針,名詞-一般,1
改正,名詞-サ変接続,1
我が国,名詞-一般,1
際,名詞-非自立-副詞可能,1
一助,名詞-一般,1
日本,名詞-固有名詞-地域-国,1
飲食業,名詞-一般,1
すし,名詞-一般,1
商,名詞-一般,1
喫茶,名詞-一般,1
中華料理,名詞-一般,1
意見,名詞-サ変接続,1
集約,名詞-サ変接続,1
協力,名詞-サ変接続,1
作成,名詞-サ変接続,1
業種,名詞-一般,1
多岐,名詞-一般,1
存在,名詞-サ変接続,1
多く,名詞-副詞可能,1
中小,名詞-一般,1
個人,名詞-一般,1
運営,名詞-サ変接続,1
これら,名詞-代名詞-一般,1
はじめ,名詞-副詞可能,1
A,名詞-固有名詞-組織,1
公開,名詞-サ変接続,1
現場,名詞-一般,1
手洗い,名詞-一般,1
働く,名詞-一般,1
参考,名詞-サ変接続,1
会計,名詞-サ変接続,1
処理,名詞-サ変接続,1
項目,名詞-一般,1
重要,名詞-形容動詞語幹,1
理解,名詞-サ変接続,1
カウンター席,名詞-一般,1
密着,名詞-サ変接続,1
適度,名詞-形容動詞語幹,1
真正面,名詞-一般,1
区切り,名詞-一般,1
アクリル板,名詞-一般,1
間,名詞-接尾-一般,1
会話,名詞-サ変接続,1
控えめ,名詞-形容動詞語幹,1
BGM,名詞-一般,1
とき,名詞-一般,1
正面,名詞-一般,1
大皿,名詞-一般,1
個々,名詞-一般,1
A,名詞-一般,1
冒頭,名詞-一般,1
質問,名詞-サ変接続,1
式,名詞-接尾-一般,1
脚,名詞-一般,1
分,名詞-接尾-一般,1
席,名詞-一般,1
背中,名詞-一般,1
合わせ,名詞-一般,1
回答,名詞-サ変接続,1
卓上,名詞-一般,1
撤去,名詞-サ変接続,1
都度,名詞-非自立-副詞可能,1
交換,名詞-サ変接続,1
和食,名詞-一般,1
洋食,名詞-一般,1
ファーストフード,名詞-一般,1
入れ替わり,名詞-一般,1
頻繁,名詞-形容動詞語幹,1
現実,名詞-一般,1
タイミング,名詞-一般,1
等,名詞-固有名詞-人名-名,1
2653,名詞-数,1
213,名詞-数,1
生鮮食品,名詞-一般,1
87,名詞-数,1
700,名詞-数,1
96,名詞-数,1
5700,名詞-数,1
183,名詞-数,1
6400,名詞-数,1
6800,名詞-数,1
3700,名詞-数,1
159,名詞-数,1
6773,名詞-数,1
ミニストップ,名詞-一般,1
ソフトクリーム専門店,名詞-一般,1
観,名詞-接尾-一般,1
駅,名詞-接尾-地域,1
１,名詞-数,1
階,名詞-接尾-助数詞,1
直結,名詞-サ変接続,1
商店街,名詞-一般,1
オープン,名詞-サ変接続,1
ひと口,名詞-一般,1
さ,名詞-接尾-特殊,1
ひと時,名詞-一般,1
幸せ,名詞-一般,1
テーマ,名詞-一般,1
ソフトクリーム,名詞-一般,1
スイーツ,名詞-一般,1
MINI,名詞-固有名詞-組織,1
SOF,名詞-一般,1
都,名詞-接尾-地域,1
区,名詞-接尾-地域,1
西新宿,名詞-固有名詞-地域-一般,1
一丁目,名詞-一般,1
街,名詞-一般,1
平日,名詞-一般,1
東京都,名詞-一般,1
武蔵野,名詞-一般,1
吉祥寺本,名詞-固有名詞-地域-一般,1
東海,名詞-固有名詞-地域-一般,1
館内,名詞-固有名詞-地域-一般,1
パネル,名詞-一般,1
ビニール,名詞-一般,1
滞在,名詞-サ変接続,1
最小限,名詞-一般,1
喫煙,名詞-サ変接続,1
自動販売機,名詞-一般,1
停止,名詞-サ変接続,1
中旬,名詞-副詞可能,1
森永製菓,名詞-一般,1
120,名詞-数,1
タッグ,名詞-一般,1
爽やか,名詞-一般,1
クリーミー,名詞-一般,1
やさしい甘さ,名詞-一般,1
ひんやり,名詞-一般,1
冷たい,名詞-一般,1
飲むスイーツ,名詞-一般,1
爽快,名詞-形容動詞語幹,1
味わい,名詞-一般,1
再現,名詞-サ変接続,1
こだわり,名詞-一般,1
一品,名詞-一般,1
サイズ,名詞-一般,1
数量限定,名詞-一般,1
パッケージ,名詞-一般,1
水色,名詞-一般,1
赤い,名詞-一般,1
清涼感,名詞-一般,1
見た目,名詞-一般,1
会員,名詞-一般,1
流行,名詞-一般,1
季節,名詞-一般,1
気温,名詞-一般,1
湿度,名詞-一般,1
上昇,名詞-サ変接続,1
選定,名詞-サ変接続,1
鮮魚,名詞-一般,1
介,名詞-サ変接続,1
類,名詞-接尾-一般,1
規模,名詞-一般,1
食,名詞-一般,1
部,名詞-接尾-一般,1
調理,名詞-一般,1
済み,名詞-接尾-一般,1
菌,名詞-一般,1
発育,名詞-サ変接続,1
至,名詞-一般,1
適,名詞-サ変接続,1
帯,名詞-一般,1
℃～,名詞-サ変接続,1
℃）,名詞-サ変接続,1
適切,名詞-形容動詞語幹,1
以下,名詞-非自立-副詞可能,1
65,名詞-数,1
保存,名詞-一般,1
例,名詞-一般,1
小分け,名詞-一般,1
保冷剤,名詞-一般,1
保冷,名詞-一般,1
保温,名詞-一般,1
ボックス,名詞-一般,1
配達,名詞-一般,1
喫食,名詞-一般,1
口,名詞-一般,1
頭,名詞-一般,1
シール,名詞-一般,1
室,名詞-一般,1
規定,名詞-サ変接続,1
都道府県,名詞-一般,1
一般的,名詞-一般,1
発令,名詞-サ変接続,1
今般,名詞-副詞可能,1
特殊,名詞-形容動詞語幹,1
事情,名詞-一般,1
支障,名詞-一般,1
範囲,名詞-一般,1
合致,名詞-サ変接続,1
なす,名詞-一般,1
弾力,名詞-一般,1
運用,名詞-一般,1
研究,名詞-サ変接続,1
進化,名詞-一般,1
4時間,名詞-一般,1
－,名詞-サ変接続,1
活,名詞-一般,1
用法,名詞-一般,1
形式,名詞-一般,1
著者,名詞-一般,1
第一人者,名詞-一般,1
奥,名詞-一般,1
島,名詞-一般,1
晶子,名詞-固有名詞-人名-名,1
氏,名詞-接尾-人名,1
講師,名詞-一般,1
見方,名詞-一般,1
キ,名詞-一般,1
部分,名詞-一般,1
Segment,名詞-一般,1
of,名詞-一般,1
One,名詞-一般,1
Only,名詞-固有名詞-組織,1
カテゴリー,名詞-一般,1
活性化,名詞-一般,1
実践的,名詞-一般,1
有効,名詞-形容動詞語幹,1
実証,名詞-サ変接続,1
バイヤー,名詞-一般,1
悩み,名詞-一般,1
何,名詞-代名詞-一般,1
たい,名詞-一般,1
収集,名詞-サ変接続,1
想定,名詞-サ変接続,1
金,名詞-一般,1
方式,名詞-一般,1
42,名詞-数,1
堺,名詞-固有名詞-地域-一般,1
車,名詞-一般,1
一つ,名詞-一般,1
気軽,名詞-形容動詞語幹,1
楽しく,名詞-一般,1
コミュニケーション,名詞-一般,1
場,名詞-一般,1
連携,名詞-サ変接続,1
貢献,名詞-サ変接続,1
関東,名詞-固有名詞-地域-一般,1
km,名詞-一般,1
圏内,名詞-一般,1
60代,名詞-一般,1
近隣,名詞-一般,1
コンビニエンスストア,名詞-一般,1
取扱,名詞-一般,1
肉,名詞-一般,1
魚,名詞-一般,1
野菜,名詞-一般,1
豆腐,名詞-一般,1
牛乳,名詞-一般,1
パン,名詞-一般,1
菓子,名詞-一般,1
日用品,名詞-一般,1
300,名詞-数,1
額,名詞-一般,1
当日,名詞-副詞可能,1
店頭,名詞-一般,1
売価,名詞-一般,1
取り扱い,名詞-一般,1
次回,名詞-副詞可能,1
持参,名詞-サ変接続,1
赤坂,名詞-固有名詞-地域-一般,1
御池,名詞-固有名詞-人名-姓,1
泉北,名詞-固有名詞-組織,1
庭,名詞-一般,1
代,名詞-接尾-一般,1
木曜日,名詞-一般,1
日曜日,名詞-一般,1
週,名詞-一般,1
最大,名詞-一般,1
カ所,名詞-接尾-助数詞,1
デジタル化,名詞-一般,1
少子,名詞-一般,1
高齢化,名詞-一般,1
デジタル,名詞-一般,1
価値,名詞-一般,1
利便性,名詞-一般,1
多様,名詞-形容動詞語幹,1
ニーズ,名詞-一般,1
手段,名詞-一般,1
25,名詞-数,1
めど,名詞-一般,1
準備,名詞-サ変接続,1
2900,名詞-数,1
原則,名詞-一般,1
対象,名詞-一般,1
注視,名詞-サ変接続,1
のみ,名詞-一般,1
様,名詞-接尾-人名,1
役割,名詞-一般,1
限り,名詞-非自立-副詞可能,1
距離,名詞-一般,1
声,名詞-一般,1
がけ,名詞-接尾-一般,1
ソーシャル・ディスタンス,名詞-固有名詞-一般,1
軽減,名詞-サ変接続,1
モバイル,名詞-一般,1
オーダー,名詞-一般,1
ホームページ,名詞-一般,1
アプリ,名詞-一般,1
クルー,名詞-一般,1
約束,名詞-サ変接続,1
みんな,名詞-代名詞-一般,1
スマイル,名詞-一般,1
確認,名詞-サ変接続,1
アイ・ホールディングス,名詞-一般,1
主要,名詞-一般,1
イトーヨーカ堂,名詞-固有名詞-組織,1
SC,名詞-一般,1
13,名詞-数,1
うち,名詞-一般,1
イトーヨーカドー,名詞-一般,1
ヨークベニマル,名詞-固有名詞-組織,1
そごう,名詞-固有名詞-組織,1
西武,名詞-一般,1
アイ・フードシステムズ,名詞-一般,1
デニーズ,名詞-一般,1
60,名詞-数,1
良品計画,名詞-固有名詞-組織,1
4096,名詞-数,1
概況,名詞-一般,1
58,名詞-数,1
西友,名詞-一般,1
comKIOSK,名詞-固有名詞-組織,1
卸売,名詞-サ変接続,1
先,名詞-接尾-一般,1
46,名詞-数,1
次,名詞-接尾-一般,1
比率,名詞-一般,1
衣服,名詞-一般,1
71,名詞-数,1
生活雑貨,名詞-一般,1
34,名詞-数,1
コースカベイサイド,名詞-一般,1
横須賀,名詞-固有名詞-地域-一般,1
オープン,名詞-一般,1
MUJIcom,名詞-固有名詞-組織,1
Cafe,名詞-固有名詞-組織,1
Meal,名詞-固有名詞-組織,1
MUJI,名詞-一般,1
小物,名詞-一般,1
不可欠,名詞-形容動詞語幹,1
堅調,名詞-形容動詞語幹,1
2542,名詞-数,1
81,名詞-数,1
5400,名詞-数,1
35,名詞-数,1
四半期,名詞-一般,1
588,名詞-数,1
3300,名詞-数,1
2700,名詞-数,1
43,名詞-数,1
3900,名詞-数,1
7600,名詞-数,1
32,名詞-数,1
586,名詞-数,1
1700,名詞-数,1
前期,名詞-一般,1
外装,名詞-一般,1
修繕,名詞-サ変接続,1
トイレ,名詞-一般,1
改修,名詞-サ変接続,1
什器,名詞-一般,1
備品,名詞-一般,1
整理,名詞-サ変接続,1
全部,名詞-一般,1
署,名詞-接尾-一般,1
棚卸,名詞-一般,1
ほか,名詞-副詞可能,1
セミ,名詞-一般,1
セルフレジ,名詞-一般,1
人手,名詞-一般,1
不足,名詞-サ変接続,1
解消,名詞-サ変接続,1
自ら,名詞-副詞可能,1
集団,名詞-一般,1
形成,名詞-サ変接続,1
社内,名詞-一般,1
事例,名詞-一般,1
共有,名詞-サ変接続,1
食と健康,名詞-一般,1
知識,名詞-一般,1
対話,名詞-サ変接続,1
マニュアル,名詞-一般,1
改定,名詞-サ変接続,1
ムダ,名詞-一般,1
ムリ,名詞-固有名詞-地域-一般,1
ムラ,名詞-固有名詞-一般,1
排除,名詞-サ変接続,1
作業,名詞-サ変接続,1
独自,名詞-形容動詞語幹,1
年度,名詞-一般,1
主催,名詞-サ変接続,1
お弁当,名詞-一般,1
お惣菜,名詞-一般,1
大賞,名詞-一般,1
エントリー,名詞-サ変接続,1
中,名詞-非自立-副詞可能,1
最,名詞-一般,1
入選,名詞-サ変接続,1
入賞,名詞-サ変接続,1
連続,名詞-サ変接続,1
受賞,名詞-一般,1
生鮮,名詞-一般,1
TOP,名詞-一般,1
埼玉,名詞-固有名詞-地域-一般,1
新規オープン,名詞-一般,1
期末,名詞-一般,1
温浴,名詞-サ変接続,1
葬祭,名詞-一般,1
公表,名詞-サ変接続,1
購買,名詞-サ変接続,1
変容,名詞-サ変接続,1
停滞,名詞-サ変接続,1
確定,名詞-サ変接続,1
要素,名詞-一般,1
当社,名詞-一般,1
計測,名詞-サ変接続,1
非常,名詞-形容動詞語幹,1
通期,名詞-一般,1
プラスチックカップ,名詞-一般,1
紙カップ,名詞-一般,1
1本,名詞-一般,1
あたり,名詞-接尾-一般,1
平均,名詞-サ変接続,1
g,名詞-固有名詞-組織,1
593,名詞-数,1
植物由来,名詞-一般,1
バイオ,名詞-一般,1
マス,名詞-一般,1
ナチュラル,名詞-一般,1
270,名詞-数,1
185,名詞-数,1
ブルーベリー,名詞-一般,1
ピーチ,名詞-一般,1
キウイ,名詞-一般,1
シリーズ,名詞-一般,1
全品,名詞-一般,1
人工甘味料,名詞-一般,1
香料,名詞-一般,1
着色料,名詞-一般,1
不使用,名詞-一般,1
飲料,名詞-一般,1
プラスチック製,名詞-一般,1
上蓋,名詞-一般,1
ラベル,名詞-一般,1
印刷,名詞-サ変接続,1
フィルム,名詞-一般,1
2017年,名詞-一般,1
対比,名詞-サ変接続,1
2050,名詞-数,1
型,名詞-一般,1
素材,名詞-一般,1
設定,名詞-サ変接続,1
855,名詞-数,1
7100,名詞-数,1
76,名詞-数,1
9800,名詞-数,1
80,名詞-数,1
8400,名詞-数,1
53,名詞-数,1
事,名詞-一般,1
低減,名詞-サ変接続,1
率,名詞-接尾-一般,1
人件,名詞-一般,1
抑制,名詞-サ変接続,1
水道,名詞-一般,1
光,名詞-一般,1
熱,名詞-接尾-一般,1
増益,名詞-サ変接続,1
新規,名詞-一般,1
獲得,名詞-サ変接続,1
頻度,名詞-一般,1
多角的,名詞-一般,1
世の中,名詞-一般,1
流れ,名詞-一般,1
現金,名詞-一般,1
支払い,名詞-一般,1
代金,名詞-一般,1
キャッシュレス,名詞-一般,1
増税,名詞-一般,1
マイナス,名詞-一般,1
軽減税率,名詞-一般,1
適用,名詞-サ変接続,1
スマホ,名詞-一般,1
いつ,名詞-代名詞-一般,1
どこ,名詞-代名詞-一般,1
事前,名詞-一般,1
仕組み,名詞-一般,1
EPARK,名詞-固有名詞-組織,1
出前館,名詞-一般,1
拡張,名詞-サ変接続,1
Uber,名詞-固有名詞-組織,1
Eats,名詞-一般,1
74,名詞-数,1
高い,名詞-一般,1
伸び,名詞-一般,1
直営店,名詞-一般,1
視野,名詞-一般,1
Express,名詞-一般,1
アトレ,名詞-一般,1
秋葉原,名詞-固有名詞-地域-一般,1
全席,名詞-一般,1
スタンディング,名詞-一般,1
先行,名詞-サ変接続,1
ひとくち餃子,名詞-一般,1
駅,名詞-一般,1
構内,名詞-一般,1
狭小,名詞-一般,1
店舗展開,名詞-一般,1
可能性,名詞-一般,1
老朽化,名詞-一般,1
陳腐,名詞-形容動詞語幹,1
補修,名詞-一般,1
線,名詞-接尾-一般,1
快適,名詞-一般,1
視認,名詞-サ変接続,1
海外,名詞-一般,1
４,名詞-数,1
３,名詞-数,1
ターゲット,名詞-一般,1
コンセプト,名詞-一般,1
GYOZA,名詞-固有名詞-組織,1
OHSHO,名詞-一般,1
ほぼ,名詞-一般,1
立地,名詞-一般,1
客層,名詞-一般,1
柔軟,名詞-形容動詞語幹,1
収束,名詞-サ変接続,1
低下,名詞-サ変接続,1
マインド,名詞-一般,1
動向,名詞-一般,1
左右,名詞-サ変接続,1
合理的,名詞-一般,1
算定,名詞-サ変接続,1
未定,名詞-形容動詞語幹,1
特別,名詞-一般,1
措置,名詞-サ変接続,1
法,名詞-接尾-一般,1
所在,名詞-一般,1
岐阜県,名詞-一般,1
食料品,名詞-一般,1
フロア,名詞-一般,1
臨時,名詞-一般,1
16,名詞-数,1
18時,名詞-一般,1
アルコール消毒,名詞-一般,1
シート,名詞-一般,1
外気,名詞-一般,1
取り込み,名詞-一般,1